('C:\\Users\\alice\\Documents\\Code\\Python\\firestarter\\dist\\twistedserver.exe',
 True,
 False,
 False,
 None,
 None,
 False,
 False,
 <PyInstaller.utils.win32.winmanifest.Manifest object at 0x00000000043289B0>,
 True,
 'twistedserver.pkg',
 [('out00-PYZ.pyz', 'C:\\Users\\alice\\Documents\\Code\\Python\\firestarter\\build\\twistedserver\\out00-PYZ.pyz', 'PYZ'), ('struct', 'C:\\Python34\\lib\\struct.pyo', 'PYMODULE'), ('pyimod01_os_path', 'C:\\Python34\\lib\\site-packages\\PyInstaller\\loader\\pyimod01_os_path.pyc', 'PYMODULE'), ('pyimod02_archive', 'C:\\Python34\\lib\\site-packages\\PyInstaller\\loader\\pyimod02_archive.pyc', 'PYMODULE'), ('pyimod03_importers', 'C:\\Python34\\lib\\site-packages\\PyInstaller\\loader\\pyimod03_importers.pyc', 'PYMODULE'), ('pyiboot01_bootstrap', 'C:\\Python34\\lib\\site-packages\\PyInstaller\\loader\\pyiboot01_bootstrap.py', 'PYSOURCE'), ('pyi_rth__tkinter', 'C:\\Python34\\lib\\site-packages\\PyInstaller\\loader\\rthooks\\pyi_rth__tkinter.py', 'PYSOURCE'), ('pyi_rth_twisted', 'C:\\Python34\\lib\\site-packages\\PyInstaller\\loader\\rthooks\\pyi_rth_twisted.py', 'PYSOURCE'), ('twistedserver', 'C:\\Users\\alice\\Documents\\Code\\Python\\firestarter\\twistedserver.py', 'PYSOURCE'), ('msvcr100.dll', 'C:\\Python34\\MSVCR100.dll', 'BINARY'), ('python34.dll', 'C:\\Python34\\python34.dll', 'BINARY'), ('pywintypes34.dll', 'C:\\Python34\\pywintypes34.dll', 'BINARY'), ('win32wnet', 'C:\\Python34\\lib\\site-packages\\win32\\win32wnet.pyd', 'EXTENSION'), ('_ctypes', 'C:\\Python34\\DLLs\\_ctypes.pyd', 'EXTENSION'), ('_win32sysloader', 'C:\\Python34\\lib\\site-packages\\win32\\_win32sysloader.pyd', 'EXTENSION'), ('win32process', 'C:\\Python34\\lib\\site-packages\\win32\\win32process.pyd', 'EXTENSION'), ('_ssl', 'C:\\Python34\\DLLs\\_ssl.pyd', 'EXTENSION'), ('unicodedata', 'C:\\Python34\\DLLs\\unicodedata.pyd', 'EXTENSION'), ('win32api', 'C:\\Python34\\lib\\site-packages\\win32\\win32api.pyd', 'EXTENSION'), ('pyexpat', 'C:\\Python34\\DLLs\\pyexpat.pyd', 'EXTENSION'), ('_hashlib', 'C:\\Python34\\DLLs\\_hashlib.pyd', 'EXTENSION'), ('select', 'C:\\Python34\\DLLs\\select.pyd', 'EXTENSION'), ('_bz2', 'C:\\Python34\\DLLs\\_bz2.pyd', 'EXTENSION'), ('_lzma', 'C:\\Python34\\DLLs\\_lzma.pyd', 'EXTENSION'), ('_socket', 'C:\\Python34\\DLLs\\_socket.pyd', 'EXTENSION'), ('_tkinter', 'C:\\Python34\\DLLs\\_tkinter.pyd', 'EXTENSION'), ('tcl86t.dll', 'C:\\Python34\\DLLs\\tcl86t.dll', 'BINARY'), ('tk86t.dll', 'C:\\Python34\\DLLs\\tk86t.dll', 'BINARY'), ('base_library.zip', 'C:\\Users\\alice\\Documents\\Code\\Python\\firestarter\\build\\twistedserver\\base_library.zip', 'DATA'), ('tcl\\msgs\\de.msg', 'C:\\Python34\\tcl\\tcl8.6\\msgs\\de.msg', 'DATA'), ('tcl\\tzdata\\us\\michigan', 'C:\\Python34\\tcl\\tcl8.6\\tzdata\\US\\Michigan', 'DATA'), ('tcl\\tzdata\\asia\\kuala_lumpur', 'C:\\Python34\\tcl\\tcl8.6\\tzdata\\Asia\\Kuala_Lumpur', 'DATA'), ('tcl\\encoding\\cp932.enc', 'C:\\Python34\\tcl\\tcl8.6\\encoding\\cp932.enc', 'DATA'), ('tcl\\tzdata\\antarctica\\mcmurdo', 'C:\\Python34\\tcl\\tcl8.6\\tzdata\\Antarctica\\McMurdo', 'DATA'), ('tcl\\tzdata\\america\\menominee', 'C:\\Python34\\tcl\\tcl8.6\\tzdata\\America\\Menominee', 'DATA'), ('tcl\\tzdata\\asia\\manila', 'C:\\Python34\\tcl\\tcl8.6\\tzdata\\Asia\\Manila', 'DATA'), ('tcl\\encoding\\euc-kr.enc', 'C:\\Python34\\tcl\\tcl8.6\\encoding\\euc-kr.enc', 'DATA'), ('tcl\\tzdata\\africa\\casablanca', 'C:\\Python34\\tcl\\tcl8.6\\tzdata\\Africa\\Casablanca', 'DATA'), ('tcl\\tzdata\\antarctica\\palmer', 'C:\\Python34\\tcl\\tcl8.6\\tzdata\\Antarctica\\Palmer', 'DATA'), ('tcl\\tzdata\\mexico\\bajanorte', 'C:\\Python34\\tcl\\tcl8.6\\tzdata\\Mexico\\BajaNorte', 'DATA'), ('tcl\\msgs\\mk.msg', 'C:\\Python34\\tcl\\tcl8.6\\msgs\\mk.msg', 'DATA'), ('tcl\\tzdata\\america\\adak', 'C:\\Python34\\tcl\\tcl8.6\\tzdata\\America\\Adak', 'DATA'), ('tcl\\tzdata\\europe\\budapest', 'C:\\Python34\\tcl\\tcl8.6\\tzdata\\Europe\\Budapest', 'DATA'), ('tk\\msgs\\en_gb.msg', 'C:\\Python34\\tcl\\tk8.6\\msgs\\en_gb.msg', 'DATA'), ('tcl\\tzdata\\america\\asuncion', 'C:\\Python34\\tcl\\tcl8.6\\tzdata\\America\\Asuncion', 'DATA'), ('tcl\\encoding\\maccroatian.enc', 'C:\\Python34\\tcl\\tcl8.6\\encoding\\macCroatian.enc', 'DATA'), ('tcl\\tzdata\\etc\\gmt-13', 'C:\\Python34\\tcl\\tcl8.6\\tzdata\\Etc\\GMT-13', 'DATA'), ('tcl\\tzdata\\asia\\kuwait', 'C:\\Python34\\tcl\\tcl8.6\\tzdata\\Asia\\Kuwait', 'DATA'), ('tcl\\tzdata\\africa\\bujumbura', 'C:\\Python34\\tcl\\tcl8.6\\tzdata\\Africa\\Bujumbura', 'DATA'), ('tcl\\encoding\\cp1258.enc', 'C:\\Python34\\tcl\\tcl8.6\\encoding\\cp1258.enc', 'DATA'), ('tcl\\tzdata\\etc\\zulu', 'C:\\Python34\\tcl\\tcl8.6\\tzdata\\Etc\\Zulu', 'DATA'), ('tcl\\msgs\\ro.msg', 'C:\\Python34\\tcl\\tcl8.6\\msgs\\ro.msg', 'DATA'), ('tcl\\tzdata\\america\\rankin_inlet', 'C:\\Python34\\tcl\\tcl8.6\\tzdata\\America\\Rankin_Inlet', 'DATA'), ('tcl\\tzdata\\europe\\minsk', 'C:\\Python34\\tcl\\tcl8.6\\tzdata\\Europe\\Minsk', 'DATA'), ('tcl\\tzdata\\zulu', 'C:\\Python34\\tcl\\tcl8.6\\tzdata\\Zulu', 'DATA'), ('tcl\\tzdata\\asia\\ulan_bator', 'C:\\Python34\\tcl\\tcl8.6\\tzdata\\Asia\\Ulan_Bator', 'DATA'), ('tcl\\tzdata\\asia\\kathmandu', 'C:\\Python34\\tcl\\tcl8.6\\tzdata\\Asia\\Kathmandu', 'DATA'), ('tk\\msgs\\el.msg', 'C:\\Python34\\tcl\\tk8.6\\msgs\\el.msg', 'DATA'), ('tcl\\msgs\\en_in.msg', 'C:\\Python34\\tcl\\tcl8.6\\msgs\\en_in.msg', 'DATA'), ('tcl\\encoding\\iso8859-3.enc', 'C:\\Python34\\tcl\\tcl8.6\\encoding\\iso8859-3.enc', 'DATA'), ('tcl\\tzdata\\etc\\gmt+10', 'C:\\Python34\\tcl\\tcl8.6\\tzdata\\Etc\\GMT+10', 'DATA'), ('tcl\\tzdata\\america\\mendoza', 'C:\\Python34\\tcl\\tcl8.6\\tzdata\\America\\Mendoza', 'DATA'), ('tcl\\tzdata\\atlantic\\st_helena', 'C:\\Python34\\tcl\\tcl8.6\\tzdata\\Atlantic\\St_Helena', 'DATA'), ('tk\\bgerror.tcl', 'C:\\Python34\\tcl\\tk8.6\\bgerror.tcl', 'DATA'), ('tcl\\tzdata\\america\\recife', 'C:\\Python34\\tcl\\tcl8.6\\tzdata\\America\\Recife', 'DATA'), ('tcl\\encoding\\cp861.enc', 'C:\\Python34\\tcl\\tcl8.6\\encoding\\cp861.enc', 'DATA'), ('tk\\msgs\\de.msg', 'C:\\Python34\\tcl\\tk8.6\\msgs\\de.msg', 'DATA'), ('tcl\\tzdata\\uct', 'C:\\Python34\\tcl\\tcl8.6\\tzdata\\UCT', 'DATA'), ('tcl\\tzdata\\asia\\novosibirsk', 'C:\\Python34\\tcl\\tcl8.6\\tzdata\\Asia\\Novosibirsk', 'DATA'), ('tcl\\tzdata\\pacific\\yap', 'C:\\Python34\\tcl\\tcl8.6\\tzdata\\Pacific\\Yap', 'DATA'), ('tcl\\tzdata\\asia\\jerusalem', 'C:\\Python34\\tcl\\tcl8.6\\tzdata\\Asia\\Jerusalem', 'DATA'), ('tcl\\tzdata\\pacific\\gambier', 'C:\\Python34\\tcl\\tcl8.6\\tzdata\\Pacific\\Gambier', 'DATA'), ('tcl\\msgs\\bn_in.msg', 'C:\\Python34\\tcl\\tcl8.6\\msgs\\bn_in.msg', 'DATA'), ('tcl\\msgs\\vi.msg', 'C:\\Python34\\tcl\\tcl8.6\\msgs\\vi.msg', 'DATA'), ('tcl\\msgs\\en_nz.msg', 'C:\\Python34\\tcl\\tcl8.6\\msgs\\en_nz.msg', 'DATA'), ('tcl\\tzdata\\africa\\abidjan', 'C:\\Python34\\tcl\\tcl8.6\\tzdata\\Africa\\Abidjan', 'DATA'), ('tcl\\tzdata\\america\\santiago', 'C:\\Python34\\tcl\\tcl8.6\\tzdata\\America\\Santiago', 'DATA'), ('tcl\\tzdata\\antarctica\\vostok', 'C:\\Python34\\tcl\\tcl8.6\\tzdata\\Antarctica\\Vostok', 'DATA'), ('tcl\\tzdata\\america\\rainy_river', 'C:\\Python34\\tcl\\tcl8.6\\tzdata\\America\\Rainy_River', 'DATA'), ('tcl\\tzdata\\australia\\north', 'C:\\Python34\\tcl\\tcl8.6\\tzdata\\Australia\\North', 'DATA'), ('tcl\\tzdata\\etc\\utc', 'C:\\Python34\\tcl\\tcl8.6\\tzdata\\Etc\\UTC', 'DATA'), ('tcl\\tzdata\\etc\\gmt-8', 'C:\\Python34\\tcl\\tcl8.6\\tzdata\\Etc\\GMT-8', 'DATA'), ('tcl\\tzdata\\pacific\\honolulu', 'C:\\Python34\\tcl\\tcl8.6\\tzdata\\Pacific\\Honolulu', 'DATA'), ('tcl\\msgs\\eu.msg', 'C:\\Python34\\tcl\\tcl8.6\\msgs\\eu.msg', 'DATA'), ('tcl\\tzdata\\australia\\canberra', 'C:\\Python34\\tcl\\tcl8.6\\tzdata\\Australia\\Canberra', 'DATA'), ('tcl\\tzdata\\africa\\mbabane', 'C:\\Python34\\tcl\\tcl8.6\\tzdata\\Africa\\Mbabane', 'DATA'), ('tcl\\msgs\\ga_ie.msg', 'C:\\Python34\\tcl\\tcl8.6\\msgs\\ga_ie.msg', 'DATA'), ('tcl\\tzdata\\europe\\athens', 'C:\\Python34\\tcl\\tcl8.6\\tzdata\\Europe\\Athens', 'DATA'), ('tcl\\tzdata\\america\\indiana\\knox', 'C:\\Python34\\tcl\\tcl8.6\\tzdata\\America\\Indiana\\Knox', 'DATA'), ('tcl\\tzdata\\europe\\skopje', 'C:\\Python34\\tcl\\tcl8.6\\tzdata\\Europe\\Skopje', 'DATA'), ('tcl\\tzdata\\asia\\dubai', 'C:\\Python34\\tcl\\tcl8.6\\tzdata\\Asia\\Dubai', 'DATA'), ('tcl\\tzdata\\pacific\\funafuti', 'C:\\Python34\\tcl\\tcl8.6\\tzdata\\Pacific\\Funafuti', 'DATA'), ('tk\\fontchooser.tcl', 'C:\\Python34\\tcl\\tk8.6\\fontchooser.tcl', 'DATA'), ('tcl\\tzdata\\canada\\mountain', 'C:\\Python34\\tcl\\tcl8.6\\tzdata\\Canada\\Mountain', 'DATA'), ('tcl\\msgs\\zh_cn.msg', 'C:\\Python34\\tcl\\tcl8.6\\msgs\\zh_cn.msg', 'DATA'), ('tcl\\tzdata\\europe\\vatican', 'C:\\Python34\\tcl\\tcl8.6\\tzdata\\Europe\\Vatican', 'DATA'), ('tcl\\msgs\\he.msg', 'C:\\Python34\\tcl\\tcl8.6\\msgs\\he.msg', 'DATA'), ('tcl\\tzdata\\asia\\jakarta', 'C:\\Python34\\tcl\\tcl8.6\\tzdata\\Asia\\Jakarta', 'DATA'), ('tcl\\tzdata\\asia\\sakhalin', 'C:\\Python34\\tcl\\tcl8.6\\tzdata\\Asia\\Sakhalin', 'DATA'), ('tcl\\tzdata\\america\\el_salvador', 'C:\\Python34\\tcl\\tcl8.6\\tzdata\\America\\El_Salvador', 'DATA'), ('tcl\\msgs\\fa_in.msg', 'C:\\Python34\\tcl\\tcl8.6\\msgs\\fa_in.msg', 'DATA'), ('tcl\\msgs\\lt.msg', 'C:\\Python34\\tcl\\tcl8.6\\msgs\\lt.msg', 'DATA'), ('tk\\msgs\\fr.msg', 'C:\\Python34\\tcl\\tk8.6\\msgs\\fr.msg', 'DATA'), ('tcl\\tzdata\\asia\\gaza', 'C:\\Python34\\tcl\\tcl8.6\\tzdata\\Asia\\Gaza', 'DATA'), ('tcl\\tzdata\\europe\\helsinki', 'C:\\Python34\\tcl\\tcl8.6\\tzdata\\Europe\\Helsinki', 'DATA'), ('tcl\\tzdata\\etc\\gmt+9', 'C:\\Python34\\tcl\\tcl8.6\\tzdata\\Etc\\GMT+9', 'DATA'), ('tcl\\tzdata\\etc\\gmt+3', 'C:\\Python34\\tcl\\tcl8.6\\tzdata\\Etc\\GMT+3', 'DATA'), ('tcl\\tzdata\\turkey', 'C:\\Python34\\tcl\\tcl8.6\\tzdata\\Turkey', 'DATA'), ('tcl\\tzdata\\america\\lower_princes', 'C:\\Python34\\tcl\\tcl8.6\\tzdata\\America\\Lower_Princes', 'DATA'), ('tcl\\tzdata\\europe\\kiev', 'C:\\Python34\\tcl\\tcl8.6\\tzdata\\Europe\\Kiev', 'DATA'), ('tcl\\tzdata\\asia\\bahrain', 'C:\\Python34\\tcl\\tcl8.6\\tzdata\\Asia\\Bahrain', 'DATA'), ('tcl\\opt0.4\\optparse.tcl', 'C:\\Python34\\tcl\\tcl8.6\\opt0.4\\optparse.tcl', 'DATA'), ('tcl\\encoding\\iso8859-13.enc', 'C:\\Python34\\tcl\\tcl8.6\\encoding\\iso8859-13.enc', 'DATA'), ('tcl\\tzdata\\brazil\\denoronha', 'C:\\Python34\\tcl\\tcl8.6\\tzdata\\Brazil\\DeNoronha', 'DATA'), ('tcl\\tzdata\\pacific\\pago_pago', 'C:\\Python34\\tcl\\tcl8.6\\tzdata\\Pacific\\Pago_Pago', 'DATA'), ('tcl\\msgs\\es_sv.msg', 'C:\\Python34\\tcl\\tcl8.6\\msgs\\es_sv.msg', 'DATA'), ('tcl\\tzdata\\america\\yakutat', 'C:\\Python34\\tcl\\tcl8.6\\tzdata\\America\\Yakutat', 'DATA'), ('tcl\\tzdata\\etc\\gmt-10', 'C:\\Python34\\tcl\\tcl8.6\\tzdata\\Etc\\GMT-10', 'DATA'), ('tcl\\tzdata\\america\\yellowknife', 'C:\\Python34\\tcl\\tcl8.6\\tzdata\\America\\Yellowknife', 'DATA'), ('tcl\\tzdata\\canada\\east-saskatchewan', 'C:\\Python34\\tcl\\tcl8.6\\tzdata\\Canada\\East-Saskatchewan', 'DATA'), ('tcl\\tzdata\\australia\\lindeman', 'C:\\Python34\\tcl\\tcl8.6\\tzdata\\Australia\\Lindeman', 'DATA'), ('tcl\\tzdata\\america\\martinique', 'C:\\Python34\\tcl\\tcl8.6\\tzdata\\America\\Martinique', 'DATA'), ('tcl\\tzdata\\america\\costa_rica', 'C:\\Python34\\tcl\\tcl8.6\\tzdata\\America\\Costa_Rica', 'DATA'), ('tcl\\tzdata\\etc\\gmt+2', 'C:\\Python34\\tcl\\tcl8.6\\tzdata\\Etc\\GMT+2', 'DATA'), ('tk\\optmenu.tcl', 'C:\\Python34\\tcl\\tk8.6\\optMenu.tcl', 'DATA'), ('tcl\\tzdata\\asia\\tokyo', 'C:\\Python34\\tcl\\tcl8.6\\tzdata\\Asia\\Tokyo', 'DATA'), ('tcl\\tzdata\\etc\\gmt-9', 'C:\\Python34\\tcl\\tcl8.6\\tzdata\\Etc\\GMT-9', 'DATA'), ('tcl\\tzdata\\africa\\dar_es_salaam', 'C:\\Python34\\tcl\\tcl8.6\\tzdata\\Africa\\Dar_es_Salaam', 'DATA'), ('tcl\\msgs\\nl_be.msg', 'C:\\Python34\\tcl\\tcl8.6\\msgs\\nl_be.msg', 'DATA'), ('tcl\\tzdata\\america\\port_of_spain', 'C:\\Python34\\tcl\\tcl8.6\\tzdata\\America\\Port_of_Spain', 'DATA'), ('tcl\\msgs\\sq.msg', 'C:\\Python34\\tcl\\tcl8.6\\msgs\\sq.msg', 'DATA'), ('tk\\text.tcl', 'C:\\Python34\\tcl\\tk8.6\\text.tcl', 'DATA'), ('tcl\\msgs\\hi.msg', 'C:\\Python34\\tcl\\tcl8.6\\msgs\\hi.msg', 'DATA'), ('tcl\\tzdata\\israel', 'C:\\Python34\\tcl\\tcl8.6\\tzdata\\Israel', 'DATA'), ('tk\\images\\pwrdlogo100.gif', 'C:\\Python34\\tcl\\tk8.6\\images\\pwrdLogo100.gif', 'DATA'), ('tcl\\encoding\\ksc5601.enc', 'C:\\Python34\\tcl\\tcl8.6\\encoding\\ksc5601.enc', 'DATA'), ('tcl\\tzdata\\asia\\istanbul', 'C:\\Python34\\tcl\\tcl8.6\\tzdata\\Asia\\Istanbul', 'DATA'), ('tcl\\tzdata\\indian\\cocos', 'C:\\Python34\\tcl\\tcl8.6\\tzdata\\Indian\\Cocos', 'DATA'), ('tcl\\tzdata\\america\\la_paz', 'C:\\Python34\\tcl\\tcl8.6\\tzdata\\America\\La_Paz', 'DATA'), ('tcl\\tzdata\\america\\port-au-prince', 'C:\\Python34\\tcl\\tcl8.6\\tzdata\\America\\Port-au-Prince', 'DATA'), ('tcl\\tzdata\\nz', 'C:\\Python34\\tcl\\tcl8.6\\tzdata\\NZ', 'DATA'), ('tcl\\msgs\\af_za.msg', 'C:\\Python34\\tcl\\tcl8.6\\msgs\\af_za.msg', 'DATA'), ('tcl\\tzdata\\gb', 'C:\\Python34\\tcl\\tcl8.6\\tzdata\\GB', 'DATA'), ('tcl\\tzdata\\asia\\karachi', 'C:\\Python34\\tcl\\tcl8.6\\tzdata\\Asia\\Karachi', 'DATA'), ('tcl\\tzdata\\japan', 'C:\\Python34\\tcl\\tcl8.6\\tzdata\\Japan', 'DATA'), ('tcl\\tzdata\\systemv\\mst7', 'C:\\Python34\\tcl\\tcl8.6\\tzdata\\SystemV\\MST7', 'DATA'), ('tcl\\msgs\\ga.msg', 'C:\\Python34\\tcl\\tcl8.6\\msgs\\ga.msg', 'DATA'), ('tcl\\msgs\\cs.msg', 'C:\\Python34\\tcl\\tcl8.6\\msgs\\cs.msg', 'DATA'), ('tcl\\tzdata\\europe\\monaco', 'C:\\Python34\\tcl\\tcl8.6\\tzdata\\Europe\\Monaco', 'DATA'), ('tcl\\tzdata\\hongkong', 'C:\\Python34\\tcl\\tcl8.6\\tzdata\\Hongkong', 'DATA'), ('tcl\\tzdata\\australia\\act', 'C:\\Python34\\tcl\\tcl8.6\\tzdata\\Australia\\ACT', 'DATA'), ('tcl\\tzdata\\america\\belize', 'C:\\Python34\\tcl\\tcl8.6\\tzdata\\America\\Belize', 'DATA'), ('tcl\\tzdata\\america\\metlakatla', 'C:\\Python34\\tcl\\tcl8.6\\tzdata\\America\\Metlakatla', 'DATA'), ('tcl\\tzdata\\america\\phoenix', 'C:\\Python34\\tcl\\tcl8.6\\tzdata\\America\\Phoenix', 'DATA'), ('tcl\\msgs\\fr_ch.msg', 'C:\\Python34\\tcl\\tcl8.6\\msgs\\fr_ch.msg', 'DATA'), ('tk\\ttk\\alttheme.tcl', 'C:\\Python34\\tcl\\tk8.6\\ttk\\altTheme.tcl', 'DATA'), ('tcl\\tzdata\\europe\\bucharest', 'C:\\Python34\\tcl\\tcl8.6\\tzdata\\Europe\\Bucharest', 'DATA'), ('tcl\\tzdata\\asia\\calcutta', 'C:\\Python34\\tcl\\tcl8.6\\tzdata\\Asia\\Calcutta', 'DATA'), ('tcl\\tzdata\\africa\\maseru', 'C:\\Python34\\tcl\\tcl8.6\\tzdata\\Africa\\Maseru', 'DATA'), ('tcl\\encoding\\cp1252.enc', 'C:\\Python34\\tcl\\tcl8.6\\encoding\\cp1252.enc', 'DATA'), ('tcl\\encoding\\cp863.enc', 'C:\\Python34\\tcl\\tcl8.6\\encoding\\cp863.enc', 'DATA'), ('tk\\ttk\\notebook.tcl', 'C:\\Python34\\tcl\\tk8.6\\ttk\\notebook.tcl', 'DATA'), ('tcl\\tzdata\\asia\\aqtau', 'C:\\Python34\\tcl\\tcl8.6\\tzdata\\Asia\\Aqtau', 'DATA'), ('tcl\\tzdata\\pacific\\chuuk', 'C:\\Python34\\tcl\\tcl8.6\\tzdata\\Pacific\\Chuuk', 'DATA'), ('tcl\\tzdata\\australia\\queensland', 'C:\\Python34\\tcl\\tcl8.6\\tzdata\\Australia\\Queensland', 'DATA'), ('tk\\images\\lamp.png', 'C:\\Python34\\tcl\\tk8.6\\images\\lamp.png', 'DATA'), ('tcl\\tzdata\\brazil\\west', 'C:\\Python34\\tcl\\tcl8.6\\tzdata\\Brazil\\West', 'DATA'), ('tcl\\tzdata\\america\\regina', 'C:\\Python34\\tcl\\tcl8.6\\tzdata\\America\\Regina', 'DATA'), ('tcl\\tzdata\\africa\\asmera', 'C:\\Python34\\tcl\\tcl8.6\\tzdata\\Africa\\Asmera', 'DATA'), ('tk\\ttk\\utils.tcl', 'C:\\Python34\\tcl\\tk8.6\\ttk\\utils.tcl', 'DATA'), ('tcl\\tzdata\\america\\santarem', 'C:\\Python34\\tcl\\tcl8.6\\tzdata\\America\\Santarem', 'DATA'), ('tk\\msgs\\sv.msg', 'C:\\Python34\\tcl\\tk8.6\\msgs\\sv.msg', 'DATA'), ('tk\\msgs\\es.msg', 'C:\\Python34\\tcl\\tk8.6\\msgs\\es.msg', 'DATA'), ('tcl\\encoding\\macukraine.enc', 'C:\\Python34\\tcl\\tcl8.6\\encoding\\macUkraine.enc', 'DATA'), ('tcl\\encoding\\cp862.enc', 'C:\\Python34\\tcl\\tcl8.6\\encoding\\cp862.enc', 'DATA'), ('tcl\\encoding\\iso2022-jp.enc', 'C:\\Python34\\tcl\\tcl8.6\\encoding\\iso2022-jp.enc', 'DATA'), ('tcl\\tzdata\\asia\\aden', 'C:\\Python34\\tcl\\tcl8.6\\tzdata\\Asia\\Aden', 'DATA'), ('tcl\\tzdata\\indian\\comoro', 'C:\\Python34\\tcl\\tcl8.6\\tzdata\\Indian\\Comoro', 'DATA'), ('tcl\\tzdata\\atlantic\\cape_verde', 'C:\\Python34\\tcl\\tcl8.6\\tzdata\\Atlantic\\Cape_Verde', 'DATA'), ('tcl\\msgs\\es_py.msg', 'C:\\Python34\\tcl\\tcl8.6\\msgs\\es_py.msg', 'DATA'), ('tcl\\tzdata\\asia\\singapore', 'C:\\Python34\\tcl\\tcl8.6\\tzdata\\Asia\\Singapore', 'DATA'), ('tk\\ttk\\scrollbar.tcl', 'C:\\Python34\\tcl\\tk8.6\\ttk\\scrollbar.tcl', 'DATA'), ('tcl\\tzdata\\cuba', 'C:\\Python34\\tcl\\tcl8.6\\tzdata\\Cuba', 'DATA'), ('tcl\\msgs\\es_pe.msg', 'C:\\Python34\\tcl\\tcl8.6\\msgs\\es_pe.msg', 'DATA'), ('tcl\\tzdata\\america\\mazatlan', 'C:\\Python34\\tcl\\tcl8.6\\tzdata\\America\\Mazatlan', 'DATA'), ('tcl\\tzdata\\europe\\vienna', 'C:\\Python34\\tcl\\tcl8.6\\tzdata\\Europe\\Vienna', 'DATA'), ('tcl\\tzdata\\pacific\\palau', 'C:\\Python34\\tcl\\tcl8.6\\tzdata\\Pacific\\Palau', 'DATA'), ('tcl\\tzdata\\america\\merida', 'C:\\Python34\\tcl\\tcl8.6\\tzdata\\America\\Merida', 'DATA'), ('tcl\\msgs\\en_zw.msg', 'C:\\Python34\\tcl\\tcl8.6\\msgs\\en_zw.msg', 'DATA'), ('tcl\\tzdata\\us\\eastern', 'C:\\Python34\\tcl\\tcl8.6\\tzdata\\US\\Eastern', 'DATA'), ('tcl\\tzdata\\europe\\tallinn', 'C:\\Python34\\tcl\\tcl8.6\\tzdata\\Europe\\Tallinn', 'DATA'), ('tcl\\tzdata\\america\\sitka', 'C:\\Python34\\tcl\\tcl8.6\\tzdata\\America\\Sitka', 'DATA'), ('tcl\\encoding\\maccyrillic.enc', 'C:\\Python34\\tcl\\tcl8.6\\encoding\\macCyrillic.enc', 'DATA'), ('tk\\ttk\\clamtheme.tcl', 'C:\\Python34\\tcl\\tk8.6\\ttk\\clamTheme.tcl', 'DATA'), ('tcl\\tzdata\\america\\nassau', 'C:\\Python34\\tcl\\tcl8.6\\tzdata\\America\\Nassau', 'DATA'), ('tcl\\tzdata\\america\\boa_vista', 'C:\\Python34\\tcl\\tcl8.6\\tzdata\\America\\Boa_Vista', 'DATA'), ('tcl\\msgs\\ms_my.msg', 'C:\\Python34\\tcl\\tcl8.6\\msgs\\ms_my.msg', 'DATA'), ('tcl\\tzdata\\america\\winnipeg', 'C:\\Python34\\tcl\\tcl8.6\\tzdata\\America\\Winnipeg', 'DATA'), ('tcl\\tzdata\\america\\porto_velho', 'C:\\Python34\\tcl\\tcl8.6\\tzdata\\America\\Porto_Velho', 'DATA'), ('tcl\\tzdata\\america\\whitehorse', 'C:\\Python34\\tcl\\tcl8.6\\tzdata\\America\\Whitehorse', 'DATA'), ('tcl\\tzdata\\america\\atka', 'C:\\Python34\\tcl\\tcl8.6\\tzdata\\America\\Atka', 'DATA'), ('tcl\\tzdata\\america\\buenos_aires', 'C:\\Python34\\tcl\\tcl8.6\\tzdata\\America\\Buenos_Aires', 'DATA'), ('tcl\\tzdata\\europe\\zaporozhye', 'C:\\Python34\\tcl\\tcl8.6\\tzdata\\Europe\\Zaporozhye', 'DATA'), ('tcl\\tzdata\\hst', 'C:\\Python34\\tcl\\tcl8.6\\tzdata\\HST', 'DATA'), ('tcl\\tzdata\\us\\pacific', 'C:\\Python34\\tcl\\tcl8.6\\tzdata\\US\\Pacific', 'DATA'), ('tcl\\tzdata\\etc\\gmt-0', 'C:\\Python34\\tcl\\tcl8.6\\tzdata\\Etc\\GMT-0', 'DATA'), ('tk\\dialog.tcl', 'C:\\Python34\\tcl\\tk8.6\\dialog.tcl', 'DATA'), ('tcl\\tzdata\\etc\\gmt-5', 'C:\\Python34\\tcl\\tcl8.6\\tzdata\\Etc\\GMT-5', 'DATA'), ('tcl\\tzdata\\asia\\dacca', 'C:\\Python34\\tcl\\tcl8.6\\tzdata\\Asia\\Dacca', 'DATA'), ('tcl\\word.tcl', 'C:\\Python34\\tcl\\tcl8.6\\word.tcl', 'DATA'), ('tcl\\tzdata\\antarctica\\dumontdurville', 'C:\\Python34\\tcl\\tcl8.6\\tzdata\\Antarctica\\DumontDUrville', 'DATA'), ('tcl\\tzdata\\america\\antigua', 'C:\\Python34\\tcl\\tcl8.6\\tzdata\\America\\Antigua', 'DATA'), ('tcl\\msgs\\sr.msg', 'C:\\Python34\\tcl\\tcl8.6\\msgs\\sr.msg', 'DATA'), ('tcl\\tzdata\\australia\\currie', 'C:\\Python34\\tcl\\tcl8.6\\tzdata\\Australia\\Currie', 'DATA'), ('tcl\\tzdata\\etc\\gmt+7', 'C:\\Python34\\tcl\\tcl8.6\\tzdata\\Etc\\GMT+7', 'DATA'), ('tcl\\tzdata\\pacific\\guam', 'C:\\Python34\\tcl\\tcl8.6\\tzdata\\Pacific\\Guam', 'DATA'), ('tcl\\msgs\\es_pr.msg', 'C:\\Python34\\tcl\\tcl8.6\\msgs\\es_pr.msg', 'DATA'), ('tcl\\msgs\\fo_fo.msg', 'C:\\Python34\\tcl\\tcl8.6\\msgs\\fo_fo.msg', 'DATA'), ('tcl\\tzdata\\systemv\\ast4', 'C:\\Python34\\tcl\\tcl8.6\\tzdata\\SystemV\\AST4', 'DATA'), ('tcl\\tzdata\\atlantic\\faeroe', 'C:\\Python34\\tcl\\tcl8.6\\tzdata\\Atlantic\\Faeroe', 'DATA'), ('tk\\tclindex', 'C:\\Python34\\tcl\\tk8.6\\tclIndex', 'DATA'), ('tcl\\tzdata\\europe\\dublin', 'C:\\Python34\\tcl\\tcl8.6\\tzdata\\Europe\\Dublin', 'DATA'), ('tcl\\msgs\\te_in.msg', 'C:\\Python34\\tcl\\tcl8.6\\msgs\\te_in.msg', 'DATA'), ('tcl\\encoding\\cp852.enc', 'C:\\Python34\\tcl\\tcl8.6\\encoding\\cp852.enc', 'DATA'), ('tcl\\tzdata\\indian\\kerguelen', 'C:\\Python34\\tcl\\tcl8.6\\tzdata\\Indian\\Kerguelen', 'DATA'), ('tk\\images\\pwrdlogo.eps', 'C:\\Python34\\tcl\\tk8.6\\images\\pwrdLogo.eps', 'DATA'), ('tcl\\encoding\\macroman.enc', 'C:\\Python34\\tcl\\tcl8.6\\encoding\\macRoman.enc', 'DATA'), ('tcl\\tzdata\\america\\moncton', 'C:\\Python34\\tcl\\tcl8.6\\tzdata\\America\\Moncton', 'DATA'), ('tcl\\tzdata\\africa\\porto-novo', 'C:\\Python34\\tcl\\tcl8.6\\tzdata\\Africa\\Porto-Novo', 'DATA'), ('tcl\\tzdata\\america\\mexico_city', 'C:\\Python34\\tcl\\tcl8.6\\tzdata\\America\\Mexico_City', 'DATA'), ('tcl\\tzdata\\america\\ojinaga', 'C:\\Python34\\tcl\\tcl8.6\\tzdata\\America\\Ojinaga', 'DATA'), ('tcl\\msgs\\ko_kr.msg', 'C:\\Python34\\tcl\\tcl8.6\\msgs\\ko_kr.msg', 'DATA'), ('tcl\\tzdata\\est', 'C:\\Python34\\tcl\\tcl8.6\\tzdata\\EST', 'DATA'), ('tcl\\tzdata\\asia\\pyongyang', 'C:\\Python34\\tcl\\tcl8.6\\tzdata\\Asia\\Pyongyang', 'DATA'), ('tcl\\tzdata\\asia\\irkutsk', 'C:\\Python34\\tcl\\tcl8.6\\tzdata\\Asia\\Irkutsk', 'DATA'), ('tcl\\tzdata\\indian\\maldives', 'C:\\Python34\\tcl\\tcl8.6\\tzdata\\Indian\\Maldives', 'DATA'), ('tcl\\msgs\\mr.msg', 'C:\\Python34\\tcl\\tcl8.6\\msgs\\mr.msg', 'DATA'), ('tk\\tk.tcl', 'C:\\Python34\\tcl\\tk8.6\\tk.tcl', 'DATA'), ('tcl\\tzdata\\asia\\ashkhabad', 'C:\\Python34\\tcl\\tcl8.6\\tzdata\\Asia\\Ashkhabad', 'DATA'), ('tcl\\tzdata\\pacific\\majuro', 'C:\\Python34\\tcl\\tcl8.6\\tzdata\\Pacific\\Majuro', 'DATA'), ('tcl\\tzdata\\us\\alaska', 'C:\\Python34\\tcl\\tcl8.6\\tzdata\\US\\Alaska', 'DATA'), ('tk\\console.tcl', 'C:\\Python34\\tcl\\tk8.6\\console.tcl', 'DATA'), ('tcl\\tzdata\\pacific\\pohnpei', 'C:\\Python34\\tcl\\tcl8.6\\tzdata\\Pacific\\Pohnpei', 'DATA'), ('tcl\\tzdata\\europe\\bratislava', 'C:\\Python34\\tcl\\tcl8.6\\tzdata\\Europe\\Bratislava', 'DATA'), ('tcl\\tzdata\\america\\santa_isabel', 'C:\\Python34\\tcl\\tcl8.6\\tzdata\\America\\Santa_Isabel', 'DATA'), ('tcl\\tzdata\\europe\\warsaw', 'C:\\Python34\\tcl\\tcl8.6\\tzdata\\Europe\\Warsaw', 'DATA'), ('tcl\\msgs\\zh_hk.msg', 'C:\\Python34\\tcl\\tcl8.6\\msgs\\zh_hk.msg', 'DATA'), ('tcl\\tzdata\\america\\denver', 'C:\\Python34\\tcl\\tcl8.6\\tzdata\\America\\Denver', 'DATA'), ('tcl\\tzdata\\america\\thule', 'C:\\Python34\\tcl\\tcl8.6\\tzdata\\America\\Thule', 'DATA'), ('tcl\\tzdata\\africa\\el_aaiun', 'C:\\Python34\\tcl\\tcl8.6\\tzdata\\Africa\\El_Aaiun', 'DATA'), ('tcl\\tzdata\\etc\\gmt-11', 'C:\\Python34\\tcl\\tcl8.6\\tzdata\\Etc\\GMT-11', 'DATA'), ('tcl\\msgs\\ko.msg', 'C:\\Python34\\tcl\\tcl8.6\\msgs\\ko.msg', 'DATA'), ('tcl\\tzdata\\etc\\gmt+6', 'C:\\Python34\\tcl\\tcl8.6\\tzdata\\Etc\\GMT+6', 'DATA'), ('tcl\\tzdata\\asia\\vientiane', 'C:\\Python34\\tcl\\tcl8.6\\tzdata\\Asia\\Vientiane', 'DATA'), ('tcl\\tzdata\\america\\vancouver', 'C:\\Python34\\tcl\\tcl8.6\\tzdata\\America\\Vancouver', 'DATA'), ('tcl\\tzdata\\pacific\\enderbury', 'C:\\Python34\\tcl\\tcl8.6\\tzdata\\Pacific\\Enderbury', 'DATA'), ('tcl\\tzdata\\europe\\london', 'C:\\Python34\\tcl\\tcl8.6\\tzdata\\Europe\\London', 'DATA'), ('tk\\msgs\\en.msg', 'C:\\Python34\\tcl\\tk8.6\\msgs\\en.msg', 'DATA'), ('tcl\\tzdata\\america\\monterrey', 'C:\\Python34\\tcl\\tcl8.6\\tzdata\\America\\Monterrey', 'DATA'), ('tcl\\msgs\\nn.msg', 'C:\\Python34\\tcl\\tcl8.6\\msgs\\nn.msg', 'DATA'), ('tcl\\tzdata\\africa\\kigali', 'C:\\Python34\\tcl\\tcl8.6\\tzdata\\Africa\\Kigali', 'DATA'), ('tk\\unsupported.tcl', 'C:\\Python34\\tcl\\tk8.6\\unsupported.tcl', 'DATA'), ('tcl\\tzdata\\america\\fort_wayne', 'C:\\Python34\\tcl\\tcl8.6\\tzdata\\America\\Fort_Wayne', 'DATA'), ('tcl\\tzdata\\america\\st_barthelemy', 'C:\\Python34\\tcl\\tcl8.6\\tzdata\\America\\St_Barthelemy', 'DATA'), ('tcl\\msgs\\zh.msg', 'C:\\Python34\\tcl\\tcl8.6\\msgs\\zh.msg', 'DATA'), ('tk\\tkfbox.tcl', 'C:\\Python34\\tcl\\tk8.6\\tkfbox.tcl', 'DATA'), ('tcl\\encoding\\cp1251.enc', 'C:\\Python34\\tcl\\tcl8.6\\encoding\\cp1251.enc', 'DATA'), ('tcl\\tzdata\\canada\\atlantic', 'C:\\Python34\\tcl\\tcl8.6\\tzdata\\Canada\\Atlantic', 'DATA'), ('tcl\\tzdata\\indian\\mahe', 'C:\\Python34\\tcl\\tcl8.6\\tzdata\\Indian\\Mahe', 'DATA'), ('tcl\\tzdata\\america\\iqaluit', 'C:\\Python34\\tcl\\tcl8.6\\tzdata\\America\\Iqaluit', 'DATA'), ('tcl\\tzdata\\asia\\samarkand', 'C:\\Python34\\tcl\\tcl8.6\\tzdata\\Asia\\Samarkand', 'DATA'), ('tcl\\tzdata\\america\\cordoba', 'C:\\Python34\\tcl\\tcl8.6\\tzdata\\America\\Cordoba', 'DATA'), ('tcl\\encoding\\cp1256.enc', 'C:\\Python34\\tcl\\tcl8.6\\encoding\\cp1256.enc', 'DATA'), ('tcl\\msgs\\en_sg.msg', 'C:\\Python34\\tcl\\tcl8.6\\msgs\\en_sg.msg', 'DATA'), ('tcl\\msgs\\it.msg', 'C:\\Python34\\tcl\\tcl8.6\\msgs\\it.msg', 'DATA'), ('tcl\\tzdata\\australia\\perth', 'C:\\Python34\\tcl\\tcl8.6\\tzdata\\Australia\\Perth', 'DATA'), ('tk\\msgs\\pt.msg', 'C:\\Python34\\tcl\\tk8.6\\msgs\\pt.msg', 'DATA'), ('tcl\\encoding\\cp864.enc', 'C:\\Python34\\tcl\\tcl8.6\\encoding\\cp864.enc', 'DATA'), ('tcl\\tzdata\\asia\\bangkok', 'C:\\Python34\\tcl\\tcl8.6\\tzdata\\Asia\\Bangkok', 'DATA'), ('tk\\icons.tcl', 'C:\\Python34\\tcl\\tk8.6\\icons.tcl', 'DATA'), ('tcl\\tzdata\\america\\jamaica', 'C:\\Python34\\tcl\\tcl8.6\\tzdata\\America\\Jamaica', 'DATA'), ('tcl\\tzdata\\america\\bahia', 'C:\\Python34\\tcl\\tcl8.6\\tzdata\\America\\Bahia', 'DATA'), ('tcl\\msgs\\es_gt.msg', 'C:\\Python34\\tcl\\tcl8.6\\msgs\\es_gt.msg', 'DATA'), ('tcl\\encoding\\jis0208.enc', 'C:\\Python34\\tcl\\tcl8.6\\encoding\\jis0208.enc', 'DATA'), ('tcl\\tzdata\\africa\\algiers', 'C:\\Python34\\tcl\\tcl8.6\\tzdata\\Africa\\Algiers', 'DATA'), ('tcl\\tzdata\\pacific\\auckland', 'C:\\Python34\\tcl\\tcl8.6\\tzdata\\Pacific\\Auckland', 'DATA'), ('tk\\ttk\\entry.tcl', 'C:\\Python34\\tcl\\tk8.6\\ttk\\entry.tcl', 'DATA'), ('tcl\\encoding\\iso8859-2.enc', 'C:\\Python34\\tcl\\tcl8.6\\encoding\\iso8859-2.enc', 'DATA'), ('tcl\\tzdata\\australia\\adelaide', 'C:\\Python34\\tcl\\tcl8.6\\tzdata\\Australia\\Adelaide', 'DATA'), ('tcl\\tzdata\\america\\dawson_creek', 'C:\\Python34\\tcl\\tcl8.6\\tzdata\\America\\Dawson_Creek', 'DATA'), ('tcl\\tclindex', 'C:\\Python34\\tcl\\tcl8.6\\tclIndex', 'DATA'), ('tk\\images\\logomed.gif', 'C:\\Python34\\tcl\\tk8.6\\images\\logoMed.gif', 'DATA'), ('tcl\\tzdata\\africa\\monrovia', 'C:\\Python34\\tcl\\tcl8.6\\tzdata\\Africa\\Monrovia', 'DATA'), ('tcl\\tzdata\\asia\\seoul', 'C:\\Python34\\tcl\\tcl8.6\\tzdata\\Asia\\Seoul', 'DATA'), ('tcl\\tzdata\\systemv\\cst6', 'C:\\Python34\\tcl\\tcl8.6\\tzdata\\SystemV\\CST6', 'DATA'), ('tcl\\tzdata\\europe\\copenhagen', 'C:\\Python34\\tcl\\tcl8.6\\tzdata\\Europe\\Copenhagen', 'DATA'), ('tcl\\tzdata\\europe\\stockholm', 'C:\\Python34\\tcl\\tcl8.6\\tzdata\\Europe\\Stockholm', 'DATA'), ('tcl\\tzdata\\america\\argentina\\jujuy', 'C:\\Python34\\tcl\\tcl8.6\\tzdata\\America\\Argentina\\Jujuy', 'DATA'), ('tcl\\tzdata\\europe\\andorra', 'C:\\Python34\\tcl\\tcl8.6\\tzdata\\Europe\\Andorra', 'DATA'), ('tcl\\tzdata\\australia\\lhi', 'C:\\Python34\\tcl\\tcl8.6\\tzdata\\Australia\\LHI', 'DATA'), ('tcl\\tzdata\\europe\\vilnius', 'C:\\Python34\\tcl\\tcl8.6\\tzdata\\Europe\\Vilnius', 'DATA'), ('tk\\msgs\\eo.msg', 'C:\\Python34\\tcl\\tk8.6\\msgs\\eo.msg', 'DATA'), ('tcl\\encoding\\iso8859-7.enc', 'C:\\Python34\\tcl\\tcl8.6\\encoding\\iso8859-7.enc', 'DATA'), ('tk\\msgs\\da.msg', 'C:\\Python34\\tcl\\tk8.6\\msgs\\da.msg', 'DATA'), ('tcl\\msgs\\zh_sg.msg', 'C:\\Python34\\tcl\\tcl8.6\\msgs\\zh_sg.msg', 'DATA'), ('tcl\\msgs\\sw.msg', 'C:\\Python34\\tcl\\tcl8.6\\msgs\\sw.msg', 'DATA'), ('tk\\ttk\\scale.tcl', 'C:\\Python34\\tcl\\tk8.6\\ttk\\scale.tcl', 'DATA'), ('tcl\\tzdata\\america\\pangnirtung', 'C:\\Python34\\tcl\\tcl8.6\\tzdata\\America\\Pangnirtung', 'DATA'), ('tcl\\tzdata\\america\\argentina\\catamarca', 'C:\\Python34\\tcl\\tcl8.6\\tzdata\\America\\Argentina\\Catamarca', 'DATA'), ('tcl\\tzdata\\poland', 'C:\\Python34\\tcl\\tcl8.6\\tzdata\\Poland', 'DATA'), ('tcl\\tzdata\\us\\mountain', 'C:\\Python34\\tcl\\tcl8.6\\tzdata\\US\\Mountain', 'DATA'), ('tcl\\msgs\\nb.msg', 'C:\\Python34\\tcl\\tcl8.6\\msgs\\nb.msg', 'DATA'), ('tcl\\encoding\\cp936.enc', 'C:\\Python34\\tcl\\tcl8.6\\encoding\\cp936.enc', 'DATA'), ('tcl\\tzdata\\america\\tortola', 'C:\\Python34\\tcl\\tcl8.6\\tzdata\\America\\Tortola', 'DATA'), ('tcl\\tzdata\\etc\\gmt+8', 'C:\\Python34\\tcl\\tcl8.6\\tzdata\\Etc\\GMT+8', 'DATA'), ('tcl\\tzdata\\america\\campo_grande', 'C:\\Python34\\tcl\\tcl8.6\\tzdata\\America\\Campo_Grande', 'DATA'), ('tcl\\tzdata\\portugal', 'C:\\Python34\\tcl\\tcl8.6\\tzdata\\Portugal', 'DATA'), ('tcl\\tzdata\\asia\\hovd', 'C:\\Python34\\tcl\\tcl8.6\\tzdata\\Asia\\Hovd', 'DATA'), ('tcl\\tzdata\\us\\hawaii', 'C:\\Python34\\tcl\\tcl8.6\\tzdata\\US\\Hawaii', 'DATA'), ('tcl\\tzdata\\australia\\south', 'C:\\Python34\\tcl\\tcl8.6\\tzdata\\Australia\\South', 'DATA'), ('tcl\\encoding\\cp1253.enc', 'C:\\Python34\\tcl\\tcl8.6\\encoding\\cp1253.enc', 'DATA'), ('tcl\\tzdata\\pacific\\chatham', 'C:\\Python34\\tcl\\tcl8.6\\tzdata\\Pacific\\Chatham', 'DATA'), ('tcl\\tzdata\\europe\\sarajevo', 'C:\\Python34\\tcl\\tcl8.6\\tzdata\\Europe\\Sarajevo', 'DATA'), ('tcl\\msgs\\pl.msg', 'C:\\Python34\\tcl\\tcl8.6\\msgs\\pl.msg', 'DATA'), ('tk\\ttk\\progress.tcl', 'C:\\Python34\\tcl\\tk8.6\\ttk\\progress.tcl', 'DATA'), ('tcl\\tzdata\\antarctica\\south_pole', 'C:\\Python34\\tcl\\tcl8.6\\tzdata\\Antarctica\\South_Pole', 'DATA'), ('tcl\\tzdata\\america\\guyana', 'C:\\Python34\\tcl\\tcl8.6\\tzdata\\America\\Guyana', 'DATA'), ('tk\\ttk\\treeview.tcl', 'C:\\Python34\\tcl\\tk8.6\\ttk\\treeview.tcl', 'DATA'), ('tcl\\tzdata\\america\\guatemala', 'C:\\Python34\\tcl\\tcl8.6\\tzdata\\America\\Guatemala', 'DATA'), ('tcl\\encoding\\cp737.enc', 'C:\\Python34\\tcl\\tcl8.6\\encoding\\cp737.enc', 'DATA'), ('tcl\\http1.0\\pkgindex.tcl', 'C:\\Python34\\tcl\\tcl8.6\\http1.0\\pkgIndex.tcl', 'DATA'), ('tcl\\tzdata\\america\\guayaquil', 'C:\\Python34\\tcl\\tcl8.6\\tzdata\\America\\Guayaquil', 'DATA'), ('tcl\\tzdata\\asia\\damascus', 'C:\\Python34\\tcl\\tcl8.6\\tzdata\\Asia\\Damascus', 'DATA'), ('tcl\\tzdata\\systemv\\pst8', 'C:\\Python34\\tcl\\tcl8.6\\tzdata\\SystemV\\PST8', 'DATA'), ('tcl\\tzdata\\etc\\gmt-4', 'C:\\Python34\\tcl\\tcl8.6\\tzdata\\Etc\\GMT-4', 'DATA'), ('tcl\\tzdata\\pacific\\fiji', 'C:\\Python34\\tcl\\tcl8.6\\tzdata\\Pacific\\Fiji', 'DATA'), ('tcl\\tzdata\\america\\juneau', 'C:\\Python34\\tcl\\tcl8.6\\tzdata\\America\\Juneau', 'DATA'), ('tcl\\tzdata\\iran', 'C:\\Python34\\tcl\\tcl8.6\\tzdata\\Iran', 'DATA'), ('tcl\\tzdata\\asia\\kamchatka', 'C:\\Python34\\tcl\\tcl8.6\\tzdata\\Asia\\Kamchatka', 'DATA'), ('tk\\obsolete.tcl', 'C:\\Python34\\tcl\\tk8.6\\obsolete.tcl', 'DATA'), ('tcl\\msgs\\da.msg', 'C:\\Python34\\tcl\\tcl8.6\\msgs\\da.msg', 'DATA'), ('tcl\\encoding\\gb1988.enc', 'C:\\Python34\\tcl\\tcl8.6\\encoding\\gb1988.enc', 'DATA'), ('tcl\\tzdata\\asia\\choibalsan', 'C:\\Python34\\tcl\\tcl8.6\\tzdata\\Asia\\Choibalsan', 'DATA'), ('tcl\\tzdata\\asia\\ho_chi_minh', 'C:\\Python34\\tcl\\tcl8.6\\tzdata\\Asia\\Ho_Chi_Minh', 'DATA'), ('tcl\\encoding\\cp1250.enc', 'C:\\Python34\\tcl\\tcl8.6\\encoding\\cp1250.enc', 'DATA'), ('tcl\\encoding\\iso8859-14.enc', 'C:\\Python34\\tcl\\tcl8.6\\encoding\\iso8859-14.enc', 'DATA'), ('tcl\\msgs\\ta_in.msg', 'C:\\Python34\\tcl\\tcl8.6\\msgs\\ta_in.msg', 'DATA'), ('tcl\\tzdata\\asia\\riyadh', 'C:\\Python34\\tcl\\tcl8.6\\tzdata\\Asia\\Riyadh', 'DATA'), ('tcl\\encoding\\cp869.enc', 'C:\\Python34\\tcl\\tcl8.6\\encoding\\cp869.enc', 'DATA'), ('tcl\\tzdata\\africa\\douala', 'C:\\Python34\\tcl\\tcl8.6\\tzdata\\Africa\\Douala', 'DATA'), ('tcl\\msgs\\es_uy.msg', 'C:\\Python34\\tcl\\tcl8.6\\msgs\\es_uy.msg', 'DATA'), ('tcl\\msgs\\is.msg', 'C:\\Python34\\tcl\\tcl8.6\\msgs\\is.msg', 'DATA'), ('tcl\\tzdata\\america\\shiprock', 'C:\\Python34\\tcl\\tcl8.6\\tzdata\\America\\Shiprock', 'DATA'), ('tcl\\tzdata\\america\\virgin', 'C:\\Python34\\tcl\\tcl8.6\\tzdata\\America\\Virgin', 'DATA'), ('tcl\\tzdata\\africa\\bangui', 'C:\\Python34\\tcl\\tcl8.6\\tzdata\\Africa\\Bangui', 'DATA'), ('tcl\\tzdata\\europe\\samara', 'C:\\Python34\\tcl\\tcl8.6\\tzdata\\Europe\\Samara', 'DATA'), ('tcl\\tzdata\\asia\\macao', 'C:\\Python34\\tcl\\tcl8.6\\tzdata\\Asia\\Macao', 'DATA'), ('tcl\\msgs\\uk.msg', 'C:\\Python34\\tcl\\tcl8.6\\msgs\\uk.msg', 'DATA'), ('tcl\\encoding\\macturkish.enc', 'C:\\Python34\\tcl\\tcl8.6\\encoding\\macTurkish.enc', 'DATA'), ('tcl\\tzdata\\pacific\\kiritimati', 'C:\\Python34\\tcl\\tcl8.6\\tzdata\\Pacific\\Kiritimati', 'DATA'), ('tcl\\tzdata\\brazil\\acre', 'C:\\Python34\\tcl\\tcl8.6\\tzdata\\Brazil\\Acre', 'DATA'), ('tk\\palette.tcl', 'C:\\Python34\\tcl\\tk8.6\\palette.tcl', 'DATA'), ('tcl\\encoding\\jis0212.enc', 'C:\\Python34\\tcl\\tcl8.6\\encoding\\jis0212.enc', 'DATA'), ('tcl\\encoding\\macdingbats.enc', 'C:\\Python34\\tcl\\tcl8.6\\encoding\\macDingbats.enc', 'DATA'), ('tcl\\tzdata\\mexico\\bajasur', 'C:\\Python34\\tcl\\tcl8.6\\tzdata\\Mexico\\BajaSur', 'DATA'), ('tcl\\tzdata\\indian\\christmas', 'C:\\Python34\\tcl\\tcl8.6\\tzdata\\Indian\\Christmas', 'DATA'), ('tcl\\tzdata\\america\\catamarca', 'C:\\Python34\\tcl\\tcl8.6\\tzdata\\America\\Catamarca', 'DATA'), ('tcl\\tzdata\\america\\coral_harbour', 'C:\\Python34\\tcl\\tcl8.6\\tzdata\\America\\Coral_Harbour', 'DATA'), ('tcl\\tzdata\\asia\\ust-nera', 'C:\\Python34\\tcl\\tcl8.6\\tzdata\\Asia\\Ust-Nera', 'DATA'), ('tcl\\tzdata\\pacific\\galapagos', 'C:\\Python34\\tcl\\tcl8.6\\tzdata\\Pacific\\Galapagos', 'DATA'), ('tcl\\tzdata\\asia\\ashgabat', 'C:\\Python34\\tcl\\tcl8.6\\tzdata\\Asia\\Ashgabat', 'DATA'), ('tcl\\tzdata\\canada\\pacific', 'C:\\Python34\\tcl\\tcl8.6\\tzdata\\Canada\\Pacific', 'DATA'), ('tcl\\tzdata\\america\\guadeloupe', 'C:\\Python34\\tcl\\tcl8.6\\tzdata\\America\\Guadeloupe', 'DATA'), ('tcl\\tzdata\\asia\\brunei', 'C:\\Python34\\tcl\\tcl8.6\\tzdata\\Asia\\Brunei', 'DATA'), ('tcl\\tzdata\\asia\\bishkek', 'C:\\Python34\\tcl\\tcl8.6\\tzdata\\Asia\\Bishkek', 'DATA'), ('tcl\\tzdata\\europe\\lisbon', 'C:\\Python34\\tcl\\tcl8.6\\tzdata\\Europe\\Lisbon', 'DATA'), ('tcl\\encoding\\iso8859-5.enc', 'C:\\Python34\\tcl\\tcl8.6\\encoding\\iso8859-5.enc', 'DATA'), ('tk\\spinbox.tcl', 'C:\\Python34\\tcl\\tk8.6\\spinbox.tcl', 'DATA'), ('tcl\\tzdata\\pacific\\guadalcanal', 'C:\\Python34\\tcl\\tcl8.6\\tzdata\\Pacific\\Guadalcanal', 'DATA'), ('tcl\\msgs\\en_ph.msg', 'C:\\Python34\\tcl\\tcl8.6\\msgs\\en_ph.msg', 'DATA'), ('tcl\\msgs\\es_mx.msg', 'C:\\Python34\\tcl\\tcl8.6\\msgs\\es_mx.msg', 'DATA'), ('tcl\\tzdata\\america\\cambridge_bay', 'C:\\Python34\\tcl\\tcl8.6\\tzdata\\America\\Cambridge_Bay', 'DATA'), ('tcl\\tzdata\\america\\louisville', 'C:\\Python34\\tcl\\tcl8.6\\tzdata\\America\\Louisville', 'DATA'), ('tcl\\msgs\\mt.msg', 'C:\\Python34\\tcl\\tcl8.6\\msgs\\mt.msg', 'DATA'), ('tcl\\tzdata\\africa\\gaborone', 'C:\\Python34\\tcl\\tcl8.6\\tzdata\\Africa\\Gaborone', 'DATA'), ('tcl\\tzdata\\africa\\tripoli', 'C:\\Python34\\tcl\\tcl8.6\\tzdata\\Africa\\Tripoli', 'DATA'), ('tcl\\tzdata\\asia\\yerevan', 'C:\\Python34\\tcl\\tcl8.6\\tzdata\\Asia\\Yerevan', 'DATA'), ('tcl\\tzdata\\etc\\greenwich', 'C:\\Python34\\tcl\\tcl8.6\\tzdata\\Etc\\Greenwich', 'DATA'), ('tcl\\msgs\\kl.msg', 'C:\\Python34\\tcl\\tcl8.6\\msgs\\kl.msg', 'DATA'), ('tcl\\tzdata\\asia\\qatar', 'C:\\Python34\\tcl\\tcl8.6\\tzdata\\Asia\\Qatar', 'DATA'), ('tcl\\tzdata\\asia\\omsk', 'C:\\Python34\\tcl\\tcl8.6\\tzdata\\Asia\\Omsk', 'DATA'), ('tcl\\tzdata\\asia\\tashkent', 'C:\\Python34\\tcl\\tcl8.6\\tzdata\\Asia\\Tashkent', 'DATA'), ('tk\\ttk\\cursors.tcl', 'C:\\Python34\\tcl\\tk8.6\\ttk\\cursors.tcl', 'DATA'), ('tcl\\tzdata\\indian\\chagos', 'C:\\Python34\\tcl\\tcl8.6\\tzdata\\Indian\\Chagos', 'DATA'), ('tcl\\tzdata\\europe\\volgograd', 'C:\\Python34\\tcl\\tcl8.6\\tzdata\\Europe\\Volgograd', 'DATA'), ('tcl\\tzdata\\etc\\gmt', 'C:\\Python34\\tcl\\tcl8.6\\tzdata\\Etc\\GMT', 'DATA'), ('tcl\\encoding\\cp866.enc', 'C:\\Python34\\tcl\\tcl8.6\\encoding\\cp866.enc', 'DATA'), ('tcl\\init.tcl', 'C:\\Python34\\tcl\\tcl8.6\\init.tcl', 'DATA'), ('tcl\\tzdata\\america\\argentina\\salta', 'C:\\Python34\\tcl\\tcl8.6\\tzdata\\America\\Argentina\\Salta', 'DATA'), ('tcl\\tzdata\\africa\\asmara', 'C:\\Python34\\tcl\\tcl8.6\\tzdata\\Africa\\Asmara', 'DATA'), ('tcl\\tzdata\\america\\bahia_banderas', 'C:\\Python34\\tcl\\tcl8.6\\tzdata\\America\\Bahia_Banderas', 'DATA'), ('tcl\\tzdata\\africa\\ndjamena', 'C:\\Python34\\tcl\\tcl8.6\\tzdata\\Africa\\Ndjamena', 'DATA'), ('tcl\\tzdata\\canada\\eastern', 'C:\\Python34\\tcl\\tcl8.6\\tzdata\\Canada\\Eastern', 'DATA'), ('tcl\\encoding\\macromania.enc', 'C:\\Python34\\tcl\\tcl8.6\\encoding\\macRomania.enc', 'DATA'), ('tcl\\tzdata\\pacific\\samoa', 'C:\\Python34\\tcl\\tcl8.6\\tzdata\\Pacific\\Samoa', 'DATA'), ('tcl\\tzdata\\america\\indiana\\vincennes', 'C:\\Python34\\tcl\\tcl8.6\\tzdata\\America\\Indiana\\Vincennes', 'DATA'), ('tcl\\tzdata\\africa\\luanda', 'C:\\Python34\\tcl\\tcl8.6\\tzdata\\Africa\\Luanda', 'DATA'), ('tcl\\tzdata\\america\\grand_turk', 'C:\\Python34\\tcl\\tcl8.6\\tzdata\\America\\Grand_Turk', 'DATA'), ('tcl\\tzdata\\america\\kentucky\\louisville', 'C:\\Python34\\tcl\\tcl8.6\\tzdata\\America\\Kentucky\\Louisville', 'DATA'), ('tcl\\tzdata\\asia\\dushanbe', 'C:\\Python34\\tcl\\tcl8.6\\tzdata\\Asia\\Dushanbe', 'DATA'), ('tcl\\tzdata\\etc\\gmt+1', 'C:\\Python34\\tcl\\tcl8.6\\tzdata\\Etc\\GMT+1', 'DATA'), ('tcl\\msgs\\id.msg', 'C:\\Python34\\tcl\\tcl8.6\\msgs\\id.msg', 'DATA'), ('tcl\\msgs\\es_pa.msg', 'C:\\Python34\\tcl\\tcl8.6\\msgs\\es_pa.msg', 'DATA'), ('tcl\\tzdata\\africa\\bissau', 'C:\\Python34\\tcl\\tcl8.6\\tzdata\\Africa\\Bissau', 'DATA'), ('tcl\\tzdata\\asia\\saigon', 'C:\\Python34\\tcl\\tcl8.6\\tzdata\\Asia\\Saigon', 'DATA'), ('tcl\\tzdata\\america\\porto_acre', 'C:\\Python34\\tcl\\tcl8.6\\tzdata\\America\\Porto_Acre', 'DATA'), ('tcl\\tzdata\\africa\\djibouti', 'C:\\Python34\\tcl\\tcl8.6\\tzdata\\Africa\\Djibouti', 'DATA'), ('tcl\\tzdata\\america\\inuvik', 'C:\\Python34\\tcl\\tcl8.6\\tzdata\\America\\Inuvik', 'DATA'), ('tcl\\tzdata\\america\\noronha', 'C:\\Python34\\tcl\\tcl8.6\\tzdata\\America\\Noronha', 'DATA'), ('tk\\license.terms', 'C:\\Python34\\tcl\\tk8.6\\license.terms', 'DATA'), ('tcl\\tzdata\\america\\caracas', 'C:\\Python34\\tcl\\tcl8.6\\tzdata\\America\\Caracas', 'DATA'), ('tcl\\tzdata\\atlantic\\faroe', 'C:\\Python34\\tcl\\tcl8.6\\tzdata\\Atlantic\\Faroe', 'DATA'), ('tcl\\tzdata\\america\\chicago', 'C:\\Python34\\tcl\\tcl8.6\\tzdata\\America\\Chicago', 'DATA'), ('tcl\\tzdata\\africa\\conakry', 'C:\\Python34\\tcl\\tcl8.6\\tzdata\\Africa\\Conakry', 'DATA'), ('tcl\\msgs\\tr.msg', 'C:\\Python34\\tcl\\tcl8.6\\msgs\\tr.msg', 'DATA'), ('tcl\\tzdata\\asia\\taipei', 'C:\\Python34\\tcl\\tcl8.6\\tzdata\\Asia\\Taipei', 'DATA'), ('tcl\\tzdata\\pacific\\wake', 'C:\\Python34\\tcl\\tcl8.6\\tzdata\\Pacific\\Wake', 'DATA'), ('tcl\\tzdata\\africa\\bamako', 'C:\\Python34\\tcl\\tcl8.6\\tzdata\\Africa\\Bamako', 'DATA'), ('tcl\\tzdata\\australia\\eucla', 'C:\\Python34\\tcl\\tcl8.6\\tzdata\\Australia\\Eucla', 'DATA'), ('tcl\\tzdata\\asia\\chongqing', 'C:\\Python34\\tcl\\tcl8.6\\tzdata\\Asia\\Chongqing', 'DATA'), ('tcl\\tzdata\\europe\\belfast', 'C:\\Python34\\tcl\\tcl8.6\\tzdata\\Europe\\Belfast', 'DATA'), ('tcl\\msgs\\en_za.msg', 'C:\\Python34\\tcl\\tcl8.6\\msgs\\en_za.msg', 'DATA'), ('tcl\\tzdata\\europe\\isle_of_man', 'C:\\Python34\\tcl\\tcl8.6\\tzdata\\Europe\\Isle_of_Man', 'DATA'), ('tcl\\tzdata\\indian\\antananarivo', 'C:\\Python34\\tcl\\tcl8.6\\tzdata\\Indian\\Antananarivo', 'DATA'), ('tk\\images\\lamp.svg', 'C:\\Python34\\tcl\\tk8.6\\images\\lamp.svg', 'DATA'), ('tcl\\msgs\\hi_in.msg', 'C:\\Python34\\tcl\\tcl8.6\\msgs\\hi_in.msg', 'DATA'), ('tcl\\msgs\\es_ni.msg', 'C:\\Python34\\tcl\\tcl8.6\\msgs\\es_ni.msg', 'DATA'), ('tcl\\tzdata\\africa\\malabo', 'C:\\Python34\\tcl\\tcl8.6\\tzdata\\Africa\\Malabo', 'DATA'), ('tcl\\tzdata\\africa\\maputo', 'C:\\Python34\\tcl\\tcl8.6\\tzdata\\Africa\\Maputo', 'DATA'), ('tcl\\msgs\\ar_lb.msg', 'C:\\Python34\\tcl\\tcl8.6\\msgs\\ar_lb.msg', 'DATA'), ('tcl\\tzdata\\africa\\timbuktu', 'C:\\Python34\\tcl\\tcl8.6\\tzdata\\Africa\\Timbuktu', 'DATA'), ('tcl\\tzdata\\asia\\khandyga', 'C:\\Python34\\tcl\\tcl8.6\\tzdata\\Asia\\Khandyga', 'DATA'), ('tk\\tearoff.tcl', 'C:\\Python34\\tcl\\tk8.6\\tearoff.tcl', 'DATA'), ('tcl\\encoding\\symbol.enc', 'C:\\Python34\\tcl\\tcl8.6\\encoding\\symbol.enc', 'DATA'), ('tcl\\msgs\\gl.msg', 'C:\\Python34\\tcl\\tcl8.6\\msgs\\gl.msg', 'DATA'), ('tcl\\tzdata\\systemv\\ast4adt', 'C:\\Python34\\tcl\\tcl8.6\\tzdata\\SystemV\\AST4ADT', 'DATA'), ('tk\\megawidget.tcl', 'C:\\Python34\\tcl\\tk8.6\\megawidget.tcl', 'DATA'), ('tcl\\tzdata\\america\\anchorage', 'C:\\Python34\\tcl\\tcl8.6\\tzdata\\America\\Anchorage', 'DATA'), ('tcl\\tzdata\\america\\maceio', 'C:\\Python34\\tcl\\tcl8.6\\tzdata\\America\\Maceio', 'DATA'), ('tcl\\tzdata\\america\\kentucky\\monticello', 'C:\\Python34\\tcl\\tcl8.6\\tzdata\\America\\Kentucky\\Monticello', 'DATA'), ('tcl\\tzdata\\america\\detroit', 'C:\\Python34\\tcl\\tcl8.6\\tzdata\\America\\Detroit', 'DATA'), ('tcl\\tzdata\\pacific\\efate', 'C:\\Python34\\tcl\\tcl8.6\\tzdata\\Pacific\\Efate', 'DATA'), ('tcl\\tzdata\\africa\\windhoek', 'C:\\Python34\\tcl\\tcl8.6\\tzdata\\Africa\\Windhoek', 'DATA'), ('tcl\\tzdata\\europe\\sofia', 'C:\\Python34\\tcl\\tcl8.6\\tzdata\\Europe\\Sofia', 'DATA'), ('tcl\\tzdata\\australia\\west', 'C:\\Python34\\tcl\\tcl8.6\\tzdata\\Australia\\West', 'DATA'), ('tcl\\tzdata\\wet', 'C:\\Python34\\tcl\\tcl8.6\\tzdata\\WET', 'DATA'), ('tcl\\tzdata\\pacific\\kwajalein', 'C:\\Python34\\tcl\\tcl8.6\\tzdata\\Pacific\\Kwajalein', 'DATA'), ('tcl\\http1.0\\http.tcl', 'C:\\Python34\\tcl\\tcl8.6\\http1.0\\http.tcl', 'DATA'), ('tcl\\tzdata\\america\\argentina\\comodrivadavia', 'C:\\Python34\\tcl\\tcl8.6\\tzdata\\America\\Argentina\\ComodRivadavia', 'DATA'), ('tcl\\tzdata\\america\\hermosillo', 'C:\\Python34\\tcl\\tcl8.6\\tzdata\\America\\Hermosillo', 'DATA'), ('tcl\\tzdata\\asia\\thimbu', 'C:\\Python34\\tcl\\tcl8.6\\tzdata\\Asia\\Thimbu', 'DATA'), ('tcl\\tzdata\\america\\kralendijk', 'C:\\Python34\\tcl\\tcl8.6\\tzdata\\America\\Kralendijk', 'DATA'), ('tcl\\msgs\\lv.msg', 'C:\\Python34\\tcl\\tcl8.6\\msgs\\lv.msg', 'DATA'), ('tcl\\tzdata\\jamaica', 'C:\\Python34\\tcl\\tcl8.6\\tzdata\\Jamaica', 'DATA'), ('tcl\\tzdata\\libya', 'C:\\Python34\\tcl\\tcl8.6\\tzdata\\Libya', 'DATA'), ('tcl\\tzdata\\pacific\\rarotonga', 'C:\\Python34\\tcl\\tcl8.6\\tzdata\\Pacific\\Rarotonga', 'DATA'), ('tcl\\tzdata\\etc\\gmt+12', 'C:\\Python34\\tcl\\tcl8.6\\tzdata\\Etc\\GMT+12', 'DATA'), ('tcl\\encoding\\iso8859-16.enc', 'C:\\Python34\\tcl\\tcl8.6\\encoding\\iso8859-16.enc', 'DATA'), ('tk\\iconlist.tcl', 'C:\\Python34\\tcl\\tk8.6\\iconlist.tcl', 'DATA'), ('tk\\ttk\\menubutton.tcl', 'C:\\Python34\\tcl\\tk8.6\\ttk\\menubutton.tcl', 'DATA'), ('tk\\ttk\\button.tcl', 'C:\\Python34\\tcl\\tk8.6\\ttk\\button.tcl', 'DATA'), ('tcl\\tzdata\\america\\toronto', 'C:\\Python34\\tcl\\tcl8.6\\tzdata\\America\\Toronto', 'DATA'), ('tcl\\tzdata\\america\\st_lucia', 'C:\\Python34\\tcl\\tcl8.6\\tzdata\\America\\St_Lucia', 'DATA'), ('tcl\\tzdata\\africa\\ceuta', 'C:\\Python34\\tcl\\tcl8.6\\tzdata\\Africa\\Ceuta', 'DATA'), ('tcl\\encoding\\euc-jp.enc', 'C:\\Python34\\tcl\\tcl8.6\\encoding\\euc-jp.enc', 'DATA'), ('tcl\\tzdata\\pacific\\kosrae', 'C:\\Python34\\tcl\\tcl8.6\\tzdata\\Pacific\\Kosrae', 'DATA'), ('tcl\\encoding\\iso8859-6.enc', 'C:\\Python34\\tcl\\tcl8.6\\encoding\\iso8859-6.enc', 'DATA'), ('tcl\\tzdata\\america\\blanc-sablon', 'C:\\Python34\\tcl\\tcl8.6\\tzdata\\America\\Blanc-Sablon', 'DATA'), ('tcl\\tzdata\\asia\\tbilisi', 'C:\\Python34\\tcl\\tcl8.6\\tzdata\\Asia\\Tbilisi', 'DATA'), ('tcl\\tzdata\\europe\\guernsey', 'C:\\Python34\\tcl\\tcl8.6\\tzdata\\Europe\\Guernsey', 'DATA'), ('tcl\\tzdata\\met', 'C:\\Python34\\tcl\\tcl8.6\\tzdata\\MET', 'DATA'), ('tcl\\tzdata\\africa\\addis_ababa', 'C:\\Python34\\tcl\\tcl8.6\\tzdata\\Africa\\Addis_Ababa', 'DATA'), ('tcl\\encoding\\cp874.enc', 'C:\\Python34\\tcl\\tcl8.6\\encoding\\cp874.enc', 'DATA'), ('tk\\images\\pwrdlogo150.gif', 'C:\\Python34\\tcl\\tk8.6\\images\\pwrdLogo150.gif', 'DATA'), ('tcl\\tzdata\\systemv\\est5', 'C:\\Python34\\tcl\\tcl8.6\\tzdata\\SystemV\\EST5', 'DATA'), ('tcl\\tzdata\\europe\\gibraltar', 'C:\\Python34\\tcl\\tcl8.6\\tzdata\\Europe\\Gibraltar', 'DATA'), ('tcl\\msgs\\en_be.msg', 'C:\\Python34\\tcl\\tcl8.6\\msgs\\en_be.msg', 'DATA'), ('tcl\\tzdata\\america\\anguilla', 'C:\\Python34\\tcl\\tcl8.6\\tzdata\\America\\Anguilla', 'DATA'), ('tcl\\tzdata\\systemv\\pst8pdt', 'C:\\Python34\\tcl\\tcl8.6\\tzdata\\SystemV\\PST8PDT', 'DATA'), ('tcl\\tzdata\\america\\st_thomas', 'C:\\Python34\\tcl\\tcl8.6\\tzdata\\America\\St_Thomas', 'DATA'), ('tcl\\tzdata\\atlantic\\jan_mayen', 'C:\\Python34\\tcl\\tcl8.6\\tzdata\\Atlantic\\Jan_Mayen', 'DATA'), ('tcl\\tzdata\\europe\\rome', 'C:\\Python34\\tcl\\tcl8.6\\tzdata\\Europe\\Rome', 'DATA'), ('tk\\comdlg.tcl', 'C:\\Python34\\tcl\\tk8.6\\comdlg.tcl', 'DATA'), ('tcl\\tzdata\\europe\\ljubljana', 'C:\\Python34\\tcl\\tcl8.6\\tzdata\\Europe\\Ljubljana', 'DATA'), ('tcl\\tzdata\\america\\montreal', 'C:\\Python34\\tcl\\tcl8.6\\tzdata\\America\\Montreal', 'DATA'), ('tcl\\tzdata\\africa\\dakar', 'C:\\Python34\\tcl\\tcl8.6\\tzdata\\Africa\\Dakar', 'DATA'), ('tcl\\encoding\\jis0201.enc', 'C:\\Python34\\tcl\\tcl8.6\\encoding\\jis0201.enc', 'DATA'), ('tk\\ttk\\sizegrip.tcl', 'C:\\Python34\\tcl\\tk8.6\\ttk\\sizegrip.tcl', 'DATA'), ('tcl\\tzdata\\pacific\\norfolk', 'C:\\Python34\\tcl\\tcl8.6\\tzdata\\Pacific\\Norfolk', 'DATA'), ('tcl\\tzdata\\america\\cancun', 'C:\\Python34\\tcl\\tcl8.6\\tzdata\\America\\Cancun', 'DATA'), ('tcl\\encoding\\cp855.enc', 'C:\\Python34\\tcl\\tcl8.6\\encoding\\cp855.enc', 'DATA'), ('tk\\msgs\\nl.msg', 'C:\\Python34\\tcl\\tk8.6\\msgs\\nl.msg', 'DATA'), ('tcl\\tzdata\\africa\\lusaka', 'C:\\Python34\\tcl\\tcl8.6\\tzdata\\Africa\\Lusaka', 'DATA'), ('tcl\\tzdata\\america\\st_vincent', 'C:\\Python34\\tcl\\tcl8.6\\tzdata\\America\\St_Vincent', 'DATA'), ('tcl\\tzdata\\america\\indiana\\tell_city', 'C:\\Python34\\tcl\\tcl8.6\\tzdata\\America\\Indiana\\Tell_City', 'DATA'), ('tcl\\msgs\\sk.msg', 'C:\\Python34\\tcl\\tcl8.6\\msgs\\sk.msg', 'DATA'), ('tk\\images\\readme', 'C:\\Python34\\tcl\\tk8.6\\images\\README', 'DATA'), ('tcl\\tzdata\\asia\\aqtobe', 'C:\\Python34\\tcl\\tcl8.6\\tzdata\\Asia\\Aqtobe', 'DATA'), ('tcl\\encoding\\iso8859-10.enc', 'C:\\Python34\\tcl\\tcl8.6\\encoding\\iso8859-10.enc', 'DATA'), ('tk\\focus.tcl', 'C:\\Python34\\tcl\\tk8.6\\focus.tcl', 'DATA'), ('tcl\\tzdata\\etc\\gmt-2', 'C:\\Python34\\tcl\\tcl8.6\\tzdata\\Etc\\GMT-2', 'DATA'), ('tcl\\tzdata\\africa\\nouakchott', 'C:\\Python34\\tcl\\tcl8.6\\tzdata\\Africa\\Nouakchott', 'DATA'), ('tcl\\tzdata\\africa\\lome', 'C:\\Python34\\tcl\\tcl8.6\\tzdata\\Africa\\Lome', 'DATA'), ('tcl\\tzdata\\pacific\\midway', 'C:\\Python34\\tcl\\tcl8.6\\tzdata\\Pacific\\Midway', 'DATA'), ('tcl\\tzdata\\canada\\yukon', 'C:\\Python34\\tcl\\tcl8.6\\tzdata\\Canada\\Yukon', 'DATA'), ('tcl\\tzdata\\america\\araguaina', 'C:\\Python34\\tcl\\tcl8.6\\tzdata\\America\\Araguaina', 'DATA'), ('tcl\\encoding\\cp850.enc', 'C:\\Python34\\tcl\\tcl8.6\\encoding\\cp850.enc', 'DATA'), ('tcl\\msgs\\de_at.msg', 'C:\\Python34\\tcl\\tcl8.6\\msgs\\de_at.msg', 'DATA'), ('tcl\\encoding\\iso8859-15.enc', 'C:\\Python34\\tcl\\tcl8.6\\encoding\\iso8859-15.enc', 'DATA'), ('tcl\\tzdata\\asia\\thimphu', 'C:\\Python34\\tcl\\tcl8.6\\tzdata\\Asia\\Thimphu', 'DATA'), ('tcl\\tzdata\\america\\argentina\\mendoza', 'C:\\Python34\\tcl\\tcl8.6\\tzdata\\America\\Argentina\\Mendoza', 'DATA'), ('tcl\\tzdata\\africa\\tunis', 'C:\\Python34\\tcl\\tcl8.6\\tzdata\\Africa\\Tunis', 'DATA'), ('tcl\\msgs\\es_hn.msg', 'C:\\Python34\\tcl\\tcl8.6\\msgs\\es_hn.msg', 'DATA'), ('tcl\\tzdata\\america\\cayman', 'C:\\Python34\\tcl\\tcl8.6\\tzdata\\America\\Cayman', 'DATA'), ('tcl\\msgs\\ar.msg', 'C:\\Python34\\tcl\\tcl8.6\\msgs\\ar.msg', 'DATA'), ('tcl\\tzdata\\eet', 'C:\\Python34\\tcl\\tcl8.6\\tzdata\\EET', 'DATA'), ('tcl\\tzdata\\america\\creston', 'C:\\Python34\\tcl\\tcl8.6\\tzdata\\America\\Creston', 'DATA'), ('tcl\\msgs\\it_ch.msg', 'C:\\Python34\\tcl\\tcl8.6\\msgs\\it_ch.msg', 'DATA'), ('tcl\\tzdata\\europe\\busingen', 'C:\\Python34\\tcl\\tcl8.6\\tzdata\\Europe\\Busingen', 'DATA'), ('tcl\\tzdata\\america\\argentina\\san_juan', 'C:\\Python34\\tcl\\tcl8.6\\tzdata\\America\\Argentina\\San_Juan', 'DATA'), ('tcl\\encoding\\dingbats.enc', 'C:\\Python34\\tcl\\tcl8.6\\encoding\\dingbats.enc', 'DATA'), ('tcl\\tzdata\\america\\halifax', 'C:\\Python34\\tcl\\tcl8.6\\tzdata\\America\\Halifax', 'DATA'), ('tcl\\tzdata\\kwajalein', 'C:\\Python34\\tcl\\tcl8.6\\tzdata\\Kwajalein', 'DATA'), ('tcl\\msgs\\et.msg', 'C:\\Python34\\tcl\\tcl8.6\\msgs\\et.msg', 'DATA'), ('tcl\\tzdata\\europe\\amsterdam', 'C:\\Python34\\tcl\\tcl8.6\\tzdata\\Europe\\Amsterdam', 'DATA'), ('tk\\ttk\\ttk.tcl', 'C:\\Python34\\tcl\\tk8.6\\ttk\\ttk.tcl', 'DATA'), ('tcl\\tzdata\\america\\argentina\\buenos_aires', 'C:\\Python34\\tcl\\tcl8.6\\tzdata\\America\\Argentina\\Buenos_Aires', 'DATA'), ('tcl\\encoding\\cp865.enc', 'C:\\Python34\\tcl\\tcl8.6\\encoding\\cp865.enc', 'DATA'), ('tk\\images\\logo64.gif', 'C:\\Python34\\tcl\\tk8.6\\images\\logo64.gif', 'DATA'), ('tk\\images\\pwrdlogo75.gif', 'C:\\Python34\\tcl\\tk8.6\\images\\pwrdLogo75.gif', 'DATA'), ('tcl\\tzdata\\asia\\kashgar', 'C:\\Python34\\tcl\\tcl8.6\\tzdata\\Asia\\Kashgar', 'DATA'), ('tk\\ttk\\wintheme.tcl', 'C:\\Python34\\tcl\\tk8.6\\ttk\\winTheme.tcl', 'DATA'), ('tcl\\tzdata\\pacific\\tongatapu', 'C:\\Python34\\tcl\\tcl8.6\\tzdata\\Pacific\\Tongatapu', 'DATA'), ('tcl\\tzdata\\asia\\qyzylorda', 'C:\\Python34\\tcl\\tcl8.6\\tzdata\\Asia\\Qyzylorda', 'DATA'), ('tcl\\tzdata\\pacific\\noumea', 'C:\\Python34\\tcl\\tcl8.6\\tzdata\\Pacific\\Noumea', 'DATA'), ('tcl\\tzdata\\etc\\universal', 'C:\\Python34\\tcl\\tcl8.6\\tzdata\\Etc\\Universal', 'DATA'), ('tcl\\tzdata\\america\\aruba', 'C:\\Python34\\tcl\\tcl8.6\\tzdata\\America\\Aruba', 'DATA'), ('tcl\\msgs\\es_ar.msg', 'C:\\Python34\\tcl\\tcl8.6\\msgs\\es_ar.msg', 'DATA'), ('tcl\\msgs\\bn.msg', 'C:\\Python34\\tcl\\tcl8.6\\msgs\\bn.msg', 'DATA'), ('tk\\button.tcl', 'C:\\Python34\\tcl\\tk8.6\\button.tcl', 'DATA'), ('tcl\\tzdata\\america\\lima', 'C:\\Python34\\tcl\\tcl8.6\\tzdata\\America\\Lima', 'DATA'), ('tcl\\tzdata\\asia\\kabul', 'C:\\Python34\\tcl\\tcl8.6\\tzdata\\Asia\\Kabul', 'DATA'), ('tcl\\tzdata\\etc\\gmt-3', 'C:\\Python34\\tcl\\tcl8.6\\tzdata\\Etc\\GMT-3', 'DATA'), ('tcl\\msgs\\eu_es.msg', 'C:\\Python34\\tcl\\tcl8.6\\msgs\\eu_es.msg', 'DATA'), ('tcl\\clock.tcl', 'C:\\Python34\\tcl\\tcl8.6\\clock.tcl', 'DATA'), ('tcl\\tzdata\\mst7mdt', 'C:\\Python34\\tcl\\tcl8.6\\tzdata\\MST7MDT', 'DATA'), ('tcl\\tzdata\\pacific\\wallis', 'C:\\Python34\\tcl\\tcl8.6\\tzdata\\Pacific\\Wallis', 'DATA'), ('tcl\\tzdata\\africa\\banjul', 'C:\\Python34\\tcl\\tcl8.6\\tzdata\\Africa\\Banjul', 'DATA'), ('tcl\\safe.tcl', 'C:\\Python34\\tcl\\tcl8.6\\safe.tcl', 'DATA'), ('tcl\\msgs\\fo.msg', 'C:\\Python34\\tcl\\tcl8.6\\msgs\\fo.msg', 'DATA'), ('tcl\\tzdata\\indian\\reunion', 'C:\\Python34\\tcl\\tcl8.6\\tzdata\\Indian\\Reunion', 'DATA'), ('tcl\\tzdata\\us\\arizona', 'C:\\Python34\\tcl\\tcl8.6\\tzdata\\US\\Arizona', 'DATA'), ('tcl\\tzdata\\europe\\berlin', 'C:\\Python34\\tcl\\tcl8.6\\tzdata\\Europe\\Berlin', 'DATA'), ('tcl\\tzdata\\asia\\ulaanbaatar', 'C:\\Python34\\tcl\\tcl8.6\\tzdata\\Asia\\Ulaanbaatar', 'DATA'), ('tcl\\tzdata\\america\\cuiaba', 'C:\\Python34\\tcl\\tcl8.6\\tzdata\\America\\Cuiaba', 'DATA'), ('tcl\\tzdata\\america\\indianapolis', 'C:\\Python34\\tcl\\tcl8.6\\tzdata\\America\\Indianapolis', 'DATA'), ('tcl\\msgs\\kl_gl.msg', 'C:\\Python34\\tcl\\tcl8.6\\msgs\\kl_gl.msg', 'DATA'), ('tcl\\msgs\\sv.msg', 'C:\\Python34\\tcl\\tcl8.6\\msgs\\sv.msg', 'DATA'), ('tcl\\tzdata\\america\\north_dakota\\new_salem', 'C:\\Python34\\tcl\\tcl8.6\\tzdata\\America\\North_Dakota\\New_Salem', 'DATA'), ('tcl\\tzdata\\universal', 'C:\\Python34\\tcl\\tcl8.6\\tzdata\\Universal', 'DATA'), ('tk\\ttk\\spinbox.tcl', 'C:\\Python34\\tcl\\tk8.6\\ttk\\spinbox.tcl', 'DATA'), ('tcl\\tzdata\\asia\\dili', 'C:\\Python34\\tcl\\tcl8.6\\tzdata\\Asia\\Dili', 'DATA'), ('tcl\\tzdata\\africa\\niamey', 'C:\\Python34\\tcl\\tcl8.6\\tzdata\\Africa\\Niamey', 'DATA'), ('tcl\\tzdata\\australia\\tasmania', 'C:\\Python34\\tcl\\tcl8.6\\tzdata\\Australia\\Tasmania', 'DATA'), ('tcl\\tzdata\\pacific\\saipan', 'C:\\Python34\\tcl\\tcl8.6\\tzdata\\Pacific\\Saipan', 'DATA'), ('tcl\\encoding\\cp1255.enc', 'C:\\Python34\\tcl\\tcl8.6\\encoding\\cp1255.enc', 'DATA'), ('tk\\images\\pwrdlogo175.gif', 'C:\\Python34\\tcl\\tk8.6\\images\\pwrdLogo175.gif', 'DATA'), ('tcl\\tzdata\\rok', 'C:\\Python34\\tcl\\tcl8.6\\tzdata\\ROK', 'DATA'), ('tcl\\tzdata\\asia\\vladivostok', 'C:\\Python34\\tcl\\tcl8.6\\tzdata\\Asia\\Vladivostok', 'DATA'), ('tcl\\msgs\\ms.msg', 'C:\\Python34\\tcl\\tcl8.6\\msgs\\ms.msg', 'DATA'), ('tcl\\tzdata\\etc\\gmt+5', 'C:\\Python34\\tcl\\tcl8.6\\tzdata\\Etc\\GMT+5', 'DATA'), ('tcl\\tzdata\\africa\\harare', 'C:\\Python34\\tcl\\tcl8.6\\tzdata\\Africa\\Harare', 'DATA'), ('tk\\ttk\\defaults.tcl', 'C:\\Python34\\tcl\\tk8.6\\ttk\\defaults.tcl', 'DATA'), ('tcl\\tzdata\\america\\los_angeles', 'C:\\Python34\\tcl\\tcl8.6\\tzdata\\America\\Los_Angeles', 'DATA'), ('tcl\\tzdata\\america\\new_york', 'C:\\Python34\\tcl\\tcl8.6\\tzdata\\America\\New_York', 'DATA'), ('tcl\\tzdata\\america\\paramaribo', 'C:\\Python34\\tcl\\tcl8.6\\tzdata\\America\\Paramaribo', 'DATA'), ('tcl\\tzdata\\america\\north_dakota\\beulah', 'C:\\Python34\\tcl\\tcl8.6\\tzdata\\America\\North_Dakota\\Beulah', 'DATA'), ('tcl\\msgs\\bg.msg', 'C:\\Python34\\tcl\\tcl8.6\\msgs\\bg.msg', 'DATA'), ('tcl\\tzdata\\eire', 'C:\\Python34\\tcl\\tcl8.6\\tzdata\\Eire', 'DATA'), ('tcl\\msgs\\hr.msg', 'C:\\Python34\\tcl\\tcl8.6\\msgs\\hr.msg', 'DATA'), ('tcl\\msgs\\ru.msg', 'C:\\Python34\\tcl\\tcl8.6\\msgs\\ru.msg', 'DATA'), ('tcl\\tzdata\\america\\managua', 'C:\\Python34\\tcl\\tcl8.6\\tzdata\\America\\Managua', 'DATA'), ('tcl\\msgs\\ca.msg', 'C:\\Python34\\tcl\\tcl8.6\\msgs\\ca.msg', 'DATA'), ('tcl\\tzdata\\prc', 'C:\\Python34\\tcl\\tcl8.6\\tzdata\\PRC', 'DATA'), ('tcl\\tzdata\\pacific\\nauru', 'C:\\Python34\\tcl\\tcl8.6\\tzdata\\Pacific\\Nauru', 'DATA'), ('tcl\\tzdata\\canada\\saskatchewan', 'C:\\Python34\\tcl\\tcl8.6\\tzdata\\Canada\\Saskatchewan', 'DATA'), ('tcl\\tzdata\\etc\\gmt-14', 'C:\\Python34\\tcl\\tcl8.6\\tzdata\\Etc\\GMT-14', 'DATA'), ('tcl\\tzdata\\europe\\tirane', 'C:\\Python34\\tcl\\tcl8.6\\tzdata\\Europe\\Tirane', 'DATA'), ('tcl\\tzdata\\pacific\\truk', 'C:\\Python34\\tcl\\tcl8.6\\tzdata\\Pacific\\Truk', 'DATA'), ('tcl\\msgs\\ta.msg', 'C:\\Python34\\tcl\\tcl8.6\\msgs\\ta.msg', 'DATA'), ('tcl\\msgs\\en_gb.msg', 'C:\\Python34\\tcl\\tcl8.6\\msgs\\en_gb.msg', 'DATA'), ('tcl\\tzdata\\gb-eire', 'C:\\Python34\\tcl\\tcl8.6\\tzdata\\GB-Eire', 'DATA'), ('tcl\\msgs\\id_id.msg', 'C:\\Python34\\tcl\\tcl8.6\\msgs\\id_id.msg', 'DATA'), ('tcl\\tzdata\\systemv\\hst10', 'C:\\Python34\\tcl\\tcl8.6\\tzdata\\SystemV\\HST10', 'DATA'), ('tcl\\tzdata\\us\\indiana-starke', 'C:\\Python34\\tcl\\tcl8.6\\tzdata\\US\\Indiana-Starke', 'DATA'), ('tcl\\tzdata\\america\\indiana\\indianapolis', 'C:\\Python34\\tcl\\tcl8.6\\tzdata\\America\\Indiana\\Indianapolis', 'DATA'), ('tcl\\tzdata\\pacific\\marquesas', 'C:\\Python34\\tcl\\tcl8.6\\tzdata\\Pacific\\Marquesas', 'DATA'), ('tcl\\tzdata\\asia\\anadyr', 'C:\\Python34\\tcl\\tcl8.6\\tzdata\\Asia\\Anadyr', 'DATA'), ('tcl\\tzdata\\systemv\\mst7mdt', 'C:\\Python34\\tcl\\tcl8.6\\tzdata\\SystemV\\MST7MDT', 'DATA'), ('tcl\\tzdata\\iceland', 'C:\\Python34\\tcl\\tcl8.6\\tzdata\\Iceland', 'DATA'), ('tcl\\tzdata\\america\\ensenada', 'C:\\Python34\\tcl\\tcl8.6\\tzdata\\America\\Ensenada', 'DATA'), ('tcl\\tzdata\\europe\\prague', 'C:\\Python34\\tcl\\tcl8.6\\tzdata\\Europe\\Prague', 'DATA'), ('tcl\\tzdata\\america\\godthab', 'C:\\Python34\\tcl\\tcl8.6\\tzdata\\America\\Godthab', 'DATA'), ('tcl\\msgs\\es_cr.msg', 'C:\\Python34\\tcl\\tcl8.6\\msgs\\es_cr.msg', 'DATA'), ('tcl\\tzdata\\america\\santo_domingo', 'C:\\Python34\\tcl\\tcl8.6\\tzdata\\America\\Santo_Domingo', 'DATA'), ('tcl\\msgs\\af.msg', 'C:\\Python34\\tcl\\tcl8.6\\msgs\\af.msg', 'DATA'), ('tcl\\encoding\\cp437.enc', 'C:\\Python34\\tcl\\tcl8.6\\encoding\\cp437.enc', 'DATA'), ('tcl\\tzdata\\asia\\pontianak', 'C:\\Python34\\tcl\\tcl8.6\\tzdata\\Asia\\Pontianak', 'DATA'), ('tcl\\tzdata\\asia\\jayapura', 'C:\\Python34\\tcl\\tcl8.6\\tzdata\\Asia\\Jayapura', 'DATA'), ('tcl\\msgs\\fr_ca.msg', 'C:\\Python34\\tcl\\tcl8.6\\msgs\\fr_ca.msg', 'DATA'), ('tcl\\encoding\\cp949.enc', 'C:\\Python34\\tcl\\tcl8.6\\encoding\\cp949.enc', 'DATA'), ('tcl\\tzdata\\europe\\zagreb', 'C:\\Python34\\tcl\\tcl8.6\\tzdata\\Europe\\Zagreb', 'DATA'), ('tcl\\tzdata\\america\\miquelon', 'C:\\Python34\\tcl\\tcl8.6\\tzdata\\America\\Miquelon', 'DATA'), ('tcl\\msgs\\pt_br.msg', 'C:\\Python34\\tcl\\tcl8.6\\msgs\\pt_br.msg', 'DATA'), ('tk\\pkgindex.tcl', 'C:\\Python34\\tcl\\tk8.6\\pkgIndex.tcl', 'DATA'), ('tcl\\tzdata\\asia\\oral', 'C:\\Python34\\tcl\\tcl8.6\\tzdata\\Asia\\Oral', 'DATA'), ('tcl\\tzdata\\africa\\mogadishu', 'C:\\Python34\\tcl\\tcl8.6\\tzdata\\Africa\\Mogadishu', 'DATA'), ('tcl\\encoding\\cp857.enc', 'C:\\Python34\\tcl\\tcl8.6\\encoding\\cp857.enc', 'DATA'), ('tcl\\tzdata\\europe\\brussels', 'C:\\Python34\\tcl\\tcl8.6\\tzdata\\Europe\\Brussels', 'DATA'), ('tcl\\tzdata\\america\\puerto_rico', 'C:\\Python34\\tcl\\tcl8.6\\tzdata\\America\\Puerto_Rico', 'DATA'), ('tcl\\encoding\\koi8-u.enc', 'C:\\Python34\\tcl\\tcl8.6\\encoding\\koi8-u.enc', 'DATA'), ('tcl\\tzdata\\us\\aleutian', 'C:\\Python34\\tcl\\tcl8.6\\tzdata\\US\\Aleutian', 'DATA'), ('tcl\\tzdata\\antarctica\\casey', 'C:\\Python34\\tcl\\tcl8.6\\tzdata\\Antarctica\\Casey', 'DATA'), ('tcl\\tzdata\\africa\\libreville', 'C:\\Python34\\tcl\\tcl8.6\\tzdata\\Africa\\Libreville', 'DATA'), ('tcl\\tzdata\\america\\jujuy', 'C:\\Python34\\tcl\\tcl8.6\\tzdata\\America\\Jujuy', 'DATA'), ('tcl\\tzdata\\asia\\phnom_penh', 'C:\\Python34\\tcl\\tcl8.6\\tzdata\\Asia\\Phnom_Penh', 'DATA'), ('tcl\\tzdata\\america\\st_kitts', 'C:\\Python34\\tcl\\tcl8.6\\tzdata\\America\\St_Kitts', 'DATA'), ('tcl\\tzdata\\africa\\sao_tome', 'C:\\Python34\\tcl\\tcl8.6\\tzdata\\Africa\\Sao_Tome', 'DATA'), ('tk\\safetk.tcl', 'C:\\Python34\\tcl\\tk8.6\\safetk.tcl', 'DATA'), ('tcl\\tzdata\\etc\\gmt0', 'C:\\Python34\\tcl\\tcl8.6\\tzdata\\Etc\\GMT0', 'DATA'), ('tcl\\tzdata\\europe\\paris', 'C:\\Python34\\tcl\\tcl8.6\\tzdata\\Europe\\Paris', 'DATA'), ('tcl\\tzdata\\indian\\mayotte', 'C:\\Python34\\tcl\\tcl8.6\\tzdata\\Indian\\Mayotte', 'DATA'), ('tcl\\tzdata\\asia\\ujung_pandang', 'C:\\Python34\\tcl\\tcl8.6\\tzdata\\Asia\\Ujung_Pandang', 'DATA'), ('tcl\\history.tcl', 'C:\\Python34\\tcl\\tcl8.6\\history.tcl', 'DATA'), ('tcl\\tzdata\\africa\\lagos', 'C:\\Python34\\tcl\\tcl8.6\\tzdata\\Africa\\Lagos', 'DATA'), ('tcl\\tzdata\\america\\argentina\\san_luis', 'C:\\Python34\\tcl\\tcl8.6\\tzdata\\America\\Argentina\\San_Luis', 'DATA'), ('tk\\ttk\\vistatheme.tcl', 'C:\\Python34\\tcl\\tk8.6\\ttk\\vistaTheme.tcl', 'DATA'), ('tcl\\tzdata\\europe\\istanbul', 'C:\\Python34\\tcl\\tcl8.6\\tzdata\\Europe\\Istanbul', 'DATA'), ('tcl\\tzdata\\america\\sao_paulo', 'C:\\Python34\\tcl\\tcl8.6\\tzdata\\America\\Sao_Paulo', 'DATA'), ('tcl\\tzdata\\africa\\accra', 'C:\\Python34\\tcl\\tcl8.6\\tzdata\\Africa\\Accra', 'DATA'), ('tcl\\tzdata\\asia\\yekaterinburg', 'C:\\Python34\\tcl\\tcl8.6\\tzdata\\Asia\\Yekaterinburg', 'DATA'), ('tcl\\tzdata\\atlantic\\reykjavik', 'C:\\Python34\\tcl\\tcl8.6\\tzdata\\Atlantic\\Reykjavik', 'DATA'), ('tcl\\tzdata\\asia\\tel_aviv', 'C:\\Python34\\tcl\\tcl8.6\\tzdata\\Asia\\Tel_Aviv', 'DATA'), ('tcl\\tzdata\\africa\\freetown', 'C:\\Python34\\tcl\\tcl8.6\\tzdata\\Africa\\Freetown', 'DATA'), ('tcl\\msgs\\es_co.msg', 'C:\\Python34\\tcl\\tcl8.6\\msgs\\es_co.msg', 'DATA'), ('tk\\clrpick.tcl', 'C:\\Python34\\tcl\\tk8.6\\clrpick.tcl', 'DATA'), ('tk\\listbox.tcl', 'C:\\Python34\\tcl\\tk8.6\\listbox.tcl', 'DATA'), ('tcl\\tzdata\\canada\\newfoundland', 'C:\\Python34\\tcl\\tcl8.6\\tzdata\\Canada\\Newfoundland', 'DATA'), ('tcl\\tzdata\\america\\north_dakota\\center', 'C:\\Python34\\tcl\\tcl8.6\\tzdata\\America\\North_Dakota\\Center', 'DATA'), ('tcl\\msgs\\gv.msg', 'C:\\Python34\\tcl\\tcl8.6\\msgs\\gv.msg', 'DATA'), ('tcl\\tzdata\\europe\\tiraspol', 'C:\\Python34\\tcl\\tcl8.6\\tzdata\\Europe\\Tiraspol', 'DATA'), ('tcl\\tzdata\\europe\\kaliningrad', 'C:\\Python34\\tcl\\tcl8.6\\tzdata\\Europe\\Kaliningrad', 'DATA'), ('tcl\\msgs\\de_be.msg', 'C:\\Python34\\tcl\\tcl8.6\\msgs\\de_be.msg', 'DATA'), ('tcl\\encoding\\cp950.enc', 'C:\\Python34\\tcl\\tcl8.6\\encoding\\cp950.enc', 'DATA'), ('tk\\images\\logo.eps', 'C:\\Python34\\tcl\\tk8.6\\images\\logo.eps', 'DATA'), ('tcl\\tzdata\\pacific\\pitcairn', 'C:\\Python34\\tcl\\tcl8.6\\tzdata\\Pacific\\Pitcairn', 'DATA'), ('tcl\\encoding\\iso2022-kr.enc', 'C:\\Python34\\tcl\\tcl8.6\\encoding\\iso2022-kr.enc', 'DATA'), ('tk\\scrlbar.tcl', 'C:\\Python34\\tcl\\tk8.6\\scrlbar.tcl', 'DATA'), ('tcl\\tzdata\\asia\\krasnoyarsk', 'C:\\Python34\\tcl\\tcl8.6\\tzdata\\Asia\\Krasnoyarsk', 'DATA'), ('tcl\\tzdata\\australia\\lord_howe', 'C:\\Python34\\tcl\\tcl8.6\\tzdata\\Australia\\Lord_Howe', 'DATA'), ('tcl\\encoding\\ascii.enc', 'C:\\Python34\\tcl\\tcl8.6\\encoding\\ascii.enc', 'DATA'), ('tcl\\tzdata\\africa\\khartoum', 'C:\\Python34\\tcl\\tcl8.6\\tzdata\\Africa\\Khartoum', 'DATA'), ('tcl\\tzdata\\america\\st_johns', 'C:\\Python34\\tcl\\tcl8.6\\tzdata\\America\\St_Johns', 'DATA'), ('tcl\\tzdata\\asia\\tehran', 'C:\\Python34\\tcl\\tcl8.6\\tzdata\\Asia\\Tehran', 'DATA'), ('tcl\\tzdata\\australia\\melbourne', 'C:\\Python34\\tcl\\tcl8.6\\tzdata\\Australia\\Melbourne', 'DATA'), ('tcl\\tzdata\\asia\\novokuznetsk', 'C:\\Python34\\tcl\\tcl8.6\\tzdata\\Asia\\Novokuznetsk', 'DATA'), ('tcl\\tzdata\\pacific\\tahiti', 'C:\\Python34\\tcl\\tcl8.6\\tzdata\\Pacific\\Tahiti', 'DATA'), ('tcl\\tzdata\\asia\\amman', 'C:\\Python34\\tcl\\tcl8.6\\tzdata\\Asia\\Amman', 'DATA'), ('tcl\\tzdata\\america\\chihuahua', 'C:\\Python34\\tcl\\tcl8.6\\tzdata\\America\\Chihuahua', 'DATA'), ('tcl\\tzdata\\america\\indiana\\vevay', 'C:\\Python34\\tcl\\tcl8.6\\tzdata\\America\\Indiana\\Vevay', 'DATA'), ('tk\\ttk\\fonts.tcl', 'C:\\Python34\\tcl\\tk8.6\\ttk\\fonts.tcl', 'DATA'), ('tcl\\tzdata\\asia\\beirut', 'C:\\Python34\\tcl\\tcl8.6\\tzdata\\Asia\\Beirut', 'DATA'), ('tcl\\msgs\\kok.msg', 'C:\\Python34\\tcl\\tcl8.6\\msgs\\kok.msg', 'DATA'), ('tcl\\tzdata\\asia\\kuching', 'C:\\Python34\\tcl\\tcl8.6\\tzdata\\Asia\\Kuching', 'DATA'), ('tcl\\tzdata\\etc\\gmt+0', 'C:\\Python34\\tcl\\tcl8.6\\tzdata\\Etc\\GMT+0', 'DATA'), ('tcl\\encoding\\euc-cn.enc', 'C:\\Python34\\tcl\\tcl8.6\\encoding\\euc-cn.enc', 'DATA'), ('tcl\\tzdata\\europe\\luxembourg', 'C:\\Python34\\tcl\\tcl8.6\\tzdata\\Europe\\Luxembourg', 'DATA'), ('tk\\scale.tcl', 'C:\\Python34\\tcl\\tk8.6\\scale.tcl', 'DATA'), ('tcl\\msgs\\es_ve.msg', 'C:\\Python34\\tcl\\tcl8.6\\msgs\\es_ve.msg', 'DATA'), ('tcl\\tzdata\\america\\dominica', 'C:\\Python34\\tcl\\tcl8.6\\tzdata\\America\\Dominica', 'DATA'), ('tcl\\tzdata\\singapore', 'C:\\Python34\\tcl\\tcl8.6\\tzdata\\Singapore', 'DATA'), ('tcl\\tzdata\\etc\\gmt-1', 'C:\\Python34\\tcl\\tcl8.6\\tzdata\\Etc\\GMT-1', 'DATA'), ('tcl\\tzdata\\asia\\colombo', 'C:\\Python34\\tcl\\tcl8.6\\tzdata\\Asia\\Colombo', 'DATA'), ('tcl\\msgs\\en_bw.msg', 'C:\\Python34\\tcl\\tcl8.6\\msgs\\en_bw.msg', 'DATA'), ('tcl\\tzdata\\america\\argentina\\rio_gallegos', 'C:\\Python34\\tcl\\tcl8.6\\tzdata\\America\\Argentina\\Rio_Gallegos', 'DATA'), ('tcl\\tzdata\\africa\\kampala', 'C:\\Python34\\tcl\\tcl8.6\\tzdata\\Africa\\Kampala', 'DATA'), ('tcl\\tzdata\\africa\\cairo', 'C:\\Python34\\tcl\\tcl8.6\\tzdata\\Africa\\Cairo', 'DATA'), ('tcl\\tzdata\\gmt', 'C:\\Python34\\tcl\\tcl8.6\\tzdata\\GMT', 'DATA'), ('tcl\\tzdata\\america\\havana', 'C:\\Python34\\tcl\\tcl8.6\\tzdata\\America\\Havana', 'DATA'), ('tcl\\tzdata\\europe\\simferopol', 'C:\\Python34\\tcl\\tcl8.6\\tzdata\\Europe\\Simferopol', 'DATA'), ('tcl\\tzdata\\europe\\oslo', 'C:\\Python34\\tcl\\tcl8.6\\tzdata\\Europe\\Oslo', 'DATA'), ('tcl\\tzdata\\america\\glace_bay', 'C:\\Python34\\tcl\\tcl8.6\\tzdata\\America\\Glace_Bay', 'DATA'), ('tcl\\tzdata\\europe\\zurich', 'C:\\Python34\\tcl\\tcl8.6\\tzdata\\Europe\\Zurich', 'DATA'), ('tcl\\tzdata\\asia\\kolkata', 'C:\\Python34\\tcl\\tcl8.6\\tzdata\\Asia\\Kolkata', 'DATA'), ('tcl\\msgs\\zh_tw.msg', 'C:\\Python34\\tcl\\tcl8.6\\msgs\\zh_tw.msg', 'DATA'), ('tk\\panedwindow.tcl', 'C:\\Python34\\tcl\\tk8.6\\panedwindow.tcl', 'DATA'), ('tcl\\tzdata\\nz-chat', 'C:\\Python34\\tcl\\tcl8.6\\tzdata\\NZ-CHAT', 'DATA'), ('tcl\\tzdata\\america\\bogota', 'C:\\Python34\\tcl\\tcl8.6\\tzdata\\America\\Bogota', 'DATA'), ('tcl\\tzdata\\asia\\baghdad', 'C:\\Python34\\tcl\\tcl8.6\\tzdata\\Asia\\Baghdad', 'DATA'), ('tcl\\tzdata\\america\\manaus', 'C:\\Python34\\tcl\\tcl8.6\\tzdata\\America\\Manaus', 'DATA'), ('tcl\\tzdata\\mexico\\general', 'C:\\Python34\\tcl\\tcl8.6\\tzdata\\Mexico\\General', 'DATA'), ('tcl\\msgs\\fr.msg', 'C:\\Python34\\tcl\\tcl8.6\\msgs\\fr.msg', 'DATA'), ('tcl\\tzdata\\etc\\uct', 'C:\\Python34\\tcl\\tcl8.6\\tzdata\\Etc\\UCT', 'DATA'), ('tcl\\encoding\\maciceland.enc', 'C:\\Python34\\tcl\\tcl8.6\\encoding\\macIceland.enc', 'DATA'), ('tcl\\encoding\\iso8859-1.enc', 'C:\\Python34\\tcl\\tcl8.6\\encoding\\iso8859-1.enc', 'DATA'), ('tcl\\tzdata\\australia\\brisbane', 'C:\\Python34\\tcl\\tcl8.6\\tzdata\\Australia\\Brisbane', 'DATA'), ('tcl\\msgs\\fa_ir.msg', 'C:\\Python34\\tcl\\tcl8.6\\msgs\\fa_ir.msg', 'DATA'), ('tcl\\tzdata\\navajo', 'C:\\Python34\\tcl\\tcl8.6\\tzdata\\Navajo', 'DATA'), ('tcl\\msgs\\es_do.msg', 'C:\\Python34\\tcl\\tcl8.6\\msgs\\es_do.msg', 'DATA'), ('tcl\\tzdata\\america\\knox_in', 'C:\\Python34\\tcl\\tcl8.6\\tzdata\\America\\Knox_IN', 'DATA'), ('tcl\\msgs\\en_au.msg', 'C:\\Python34\\tcl\\tcl8.6\\msgs\\en_au.msg', 'DATA'), ('tcl\\msgs\\nl.msg', 'C:\\Python34\\tcl\\tcl8.6\\msgs\\nl.msg', 'DATA'), ('tcl\\tzdata\\america\\eirunepe', 'C:\\Python34\\tcl\\tcl8.6\\tzdata\\America\\Eirunepe', 'DATA'), ('tcl\\tzdata\\systemv\\cst6cdt', 'C:\\Python34\\tcl\\tcl8.6\\tzdata\\SystemV\\CST6CDT', 'DATA'), ('tk\\entry.tcl', 'C:\\Python34\\tcl\\tk8.6\\entry.tcl', 'DATA'), ('tk\\ttk\\panedwindow.tcl', 'C:\\Python34\\tcl\\tk8.6\\ttk\\panedwindow.tcl', 'DATA'), ('tcl\\tzdata\\america\\argentina\\cordoba', 'C:\\Python34\\tcl\\tcl8.6\\tzdata\\America\\Argentina\\Cordoba', 'DATA'), ('tcl\\msgs\\th.msg', 'C:\\Python34\\tcl\\tcl8.6\\msgs\\th.msg', 'DATA'), ('tcl\\tzdata\\antarctica\\macquarie', 'C:\\Python34\\tcl\\tcl8.6\\tzdata\\Antarctica\\Macquarie', 'DATA'), ('tcl\\tzdata\\australia\\yancowinna', 'C:\\Python34\\tcl\\tcl8.6\\tzdata\\Australia\\Yancowinna', 'DATA'), ('tcl\\tzdata\\asia\\hong_kong', 'C:\\Python34\\tcl\\tcl8.6\\tzdata\\Asia\\Hong_Kong', 'DATA'), ('tcl\\tzdata\\pacific\\johnston', 'C:\\Python34\\tcl\\tcl8.6\\tzdata\\Pacific\\Johnston', 'DATA'), ('tcl\\tzdata\\etc\\gmt-6', 'C:\\Python34\\tcl\\tcl8.6\\tzdata\\Etc\\GMT-6', 'DATA'), ('tcl\\msgs\\es_ec.msg', 'C:\\Python34\\tcl\\tcl8.6\\msgs\\es_ec.msg', 'DATA'), ('tcl\\msgs\\te.msg', 'C:\\Python34\\tcl\\tcl8.6\\msgs\\te.msg', 'DATA'), ('tcl\\tzdata\\cst6cdt', 'C:\\Python34\\tcl\\tcl8.6\\tzdata\\CST6CDT', 'DATA'), ('tcl\\parray.tcl', 'C:\\Python34\\tcl\\tcl8.6\\parray.tcl', 'DATA'), ('tcl\\msgs\\pt.msg', 'C:\\Python34\\tcl\\tcl8.6\\msgs\\pt.msg', 'DATA'), ('tcl\\tzdata\\america\\tijuana', 'C:\\Python34\\tcl\\tcl8.6\\tzdata\\America\\Tijuana', 'DATA'), ('tcl\\auto.tcl', 'C:\\Python34\\tcl\\tcl8.6\\auto.tcl', 'DATA'), ('tcl\\tzdata\\atlantic\\canary', 'C:\\Python34\\tcl\\tcl8.6\\tzdata\\Atlantic\\Canary', 'DATA'), ('tcl\\tzdata\\atlantic\\azores', 'C:\\Python34\\tcl\\tcl8.6\\tzdata\\Atlantic\\Azores', 'DATA'), ('tcl\\tzdata\\america\\panama', 'C:\\Python34\\tcl\\tcl8.6\\tzdata\\America\\Panama', 'DATA'), ('tk\\ttk\\classictheme.tcl', 'C:\\Python34\\tcl\\tk8.6\\ttk\\classicTheme.tcl', 'DATA'), ('tk\\msgs\\cs.msg', 'C:\\Python34\\tcl\\tk8.6\\msgs\\cs.msg', 'DATA'), ('tcl\\tzdata\\america\\argentina\\ushuaia', 'C:\\Python34\\tcl\\tcl8.6\\tzdata\\America\\Argentina\\Ushuaia', 'DATA'), ('tcl\\tzdata\\atlantic\\madeira', 'C:\\Python34\\tcl\\tcl8.6\\tzdata\\Atlantic\\Madeira', 'DATA'), ('tcl\\encoding\\iso8859-8.enc', 'C:\\Python34\\tcl\\tcl8.6\\encoding\\iso8859-8.enc', 'DATA'), ('tcl\\encoding\\macgreek.enc', 'C:\\Python34\\tcl\\tcl8.6\\encoding\\macGreek.enc', 'DATA'), ('tk\\choosedir.tcl', 'C:\\Python34\\tcl\\tk8.6\\choosedir.tcl', 'DATA'), ('tcl\\encoding\\iso2022.enc', 'C:\\Python34\\tcl\\tcl8.6\\encoding\\iso2022.enc', 'DATA'), ('tcl\\tzdata\\america\\marigot', 'C:\\Python34\\tcl\\tcl8.6\\tzdata\\America\\Marigot', 'DATA'), ('tk\\images\\logo100.gif', 'C:\\Python34\\tcl\\tk8.6\\images\\logo100.gif', 'DATA'), ('tcl\\tzdata\\asia\\chungking', 'C:\\Python34\\tcl\\tcl8.6\\tzdata\\Asia\\Chungking', 'DATA'), ('tcl\\tzdata\\asia\\hebron', 'C:\\Python34\\tcl\\tcl8.6\\tzdata\\Asia\\Hebron', 'DATA'), ('tcl\\tzdata\\europe\\moscow', 'C:\\Python34\\tcl\\tcl8.6\\tzdata\\Europe\\Moscow', 'DATA'), ('tcl\\tzdata\\america\\indiana\\winamac', 'C:\\Python34\\tcl\\tcl8.6\\tzdata\\America\\Indiana\\Winamac', 'DATA'), ('tcl\\tzdata\\chile\\easterisland', 'C:\\Python34\\tcl\\tcl8.6\\tzdata\\Chile\\EasterIsland', 'DATA'), ('tcl\\msgs\\sl.msg', 'C:\\Python34\\tcl\\tcl8.6\\msgs\\sl.msg', 'DATA'), ('tcl\\tzdata\\chile\\continental', 'C:\\Python34\\tcl\\tcl8.6\\tzdata\\Chile\\Continental', 'DATA'), ('tcl\\msgs\\el.msg', 'C:\\Python34\\tcl\\tcl8.6\\msgs\\el.msg', 'DATA'), ('tcl\\tzdata\\etc\\gmt+4', 'C:\\Python34\\tcl\\tcl8.6\\tzdata\\Etc\\GMT+4', 'DATA'), ('tcl\\tzdata\\australia\\nsw', 'C:\\Python34\\tcl\\tcl8.6\\tzdata\\Australia\\NSW', 'DATA'), ('tcl\\tzdata\\asia\\nicosia', 'C:\\Python34\\tcl\\tcl8.6\\tzdata\\Asia\\Nicosia', 'DATA'), ('tcl\\tzdata\\america\\atikokan', 'C:\\Python34\\tcl\\tcl8.6\\tzdata\\America\\Atikokan', 'DATA'), ('tcl\\tzdata\\africa\\kinshasa', 'C:\\Python34\\tcl\\tcl8.6\\tzdata\\Africa\\Kinshasa', 'DATA'), ('tcl\\encoding\\maccenteuro.enc', 'C:\\Python34\\tcl\\tcl8.6\\encoding\\macCentEuro.enc', 'DATA'), ('tcl\\tzdata\\antarctica\\mawson', 'C:\\Python34\\tcl\\tcl8.6\\tzdata\\Antarctica\\Mawson', 'DATA'), ('tcl\\tzdata\\america\\matamoros', 'C:\\Python34\\tcl\\tcl8.6\\tzdata\\America\\Matamoros', 'DATA'), ('tcl\\tzdata\\pacific\\fakaofo', 'C:\\Python34\\tcl\\tcl8.6\\tzdata\\Pacific\\Fakaofo', 'DATA'), ('tcl\\tzdata\\africa\\juba', 'C:\\Python34\\tcl\\tcl8.6\\tzdata\\Africa\\Juba', 'DATA'), ('tcl\\msgs\\es_cl.msg', 'C:\\Python34\\tcl\\tcl8.6\\msgs\\es_cl.msg', 'DATA'), ('tcl\\tzdata\\asia\\makassar', 'C:\\Python34\\tcl\\tcl8.6\\tzdata\\Asia\\Makassar', 'DATA'), ('tcl\\msgs\\kok_in.msg', 'C:\\Python34\\tcl\\tcl8.6\\msgs\\kok_in.msg', 'DATA'), ('tcl\\encoding\\koi8-r.enc', 'C:\\Python34\\tcl\\tcl8.6\\encoding\\koi8-r.enc', 'DATA'), ('tcl\\tzdata\\asia\\urumqi', 'C:\\Python34\\tcl\\tcl8.6\\tzdata\\Asia\\Urumqi', 'DATA'), ('tcl\\msgs\\eo.msg', 'C:\\Python34\\tcl\\tcl8.6\\msgs\\eo.msg', 'DATA'), ('tcl\\tzdata\\europe\\belgrade', 'C:\\Python34\\tcl\\tcl8.6\\tzdata\\Europe\\Belgrade', 'DATA'), ('tcl\\tzdata\\systemv\\yst9ydt', 'C:\\Python34\\tcl\\tcl8.6\\tzdata\\SystemV\\YST9YDT', 'DATA'), ('tcl\\encoding\\macjapan.enc', 'C:\\Python34\\tcl\\tcl8.6\\encoding\\macJapan.enc', 'DATA'), ('tcl\\tzdata\\systemv\\yst9', 'C:\\Python34\\tcl\\tcl8.6\\tzdata\\SystemV\\YST9', 'DATA'), ('tcl\\encoding\\shiftjis.enc', 'C:\\Python34\\tcl\\tcl8.6\\encoding\\shiftjis.enc', 'DATA'), ('tcl\\tzdata\\america\\resolute', 'C:\\Python34\\tcl\\tcl8.6\\tzdata\\America\\Resolute', 'DATA'), ('tcl\\tzdata\\utc', 'C:\\Python34\\tcl\\tcl8.6\\tzdata\\UTC', 'DATA'), ('tcl\\msgs\\ar_jo.msg', 'C:\\Python34\\tcl\\tcl8.6\\msgs\\ar_jo.msg', 'DATA'), ('tcl\\tzdata\\antarctica\\syowa', 'C:\\Python34\\tcl\\tcl8.6\\tzdata\\Antarctica\\Syowa', 'DATA'), ('tcl\\tzdata\\america\\montevideo', 'C:\\Python34\\tcl\\tcl8.6\\tzdata\\America\\Montevideo', 'DATA'), ('tcl\\tzdata\\systemv\\est5edt', 'C:\\Python34\\tcl\\tcl8.6\\tzdata\\SystemV\\EST5EDT', 'DATA'), ('tcl\\tzdata\\europe\\chisinau', 'C:\\Python34\\tcl\\tcl8.6\\tzdata\\Europe\\Chisinau', 'DATA'), ('tcl\\msgs\\hu.msg', 'C:\\Python34\\tcl\\tcl8.6\\msgs\\hu.msg', 'DATA'), ('tcl\\tzdata\\cet', 'C:\\Python34\\tcl\\tcl8.6\\tzdata\\CET', 'DATA'), ('tcl\\tzdata\\asia\\macau', 'C:\\Python34\\tcl\\tcl8.6\\tzdata\\Asia\\Macau', 'DATA'), ('tcl\\tzdata\\america\\boise', 'C:\\Python34\\tcl\\tcl8.6\\tzdata\\America\\Boise', 'DATA'), ('tcl\\msgs\\es.msg', 'C:\\Python34\\tcl\\tcl8.6\\msgs\\es.msg', 'DATA'), ('tcl\\msgs\\fr_be.msg', 'C:\\Python34\\tcl\\tcl8.6\\msgs\\fr_be.msg', 'DATA'), ('tcl\\msgs\\ja.msg', 'C:\\Python34\\tcl\\tcl8.6\\msgs\\ja.msg', 'DATA'), ('tcl\\tzdata\\asia\\magadan', 'C:\\Python34\\tcl\\tcl8.6\\tzdata\\Asia\\Magadan', 'DATA'), ('tcl\\tzdata\\america\\argentina\\tucuman', 'C:\\Python34\\tcl\\tcl8.6\\tzdata\\America\\Argentina\\Tucuman', 'DATA'), ('tcl\\encoding\\iso8859-9.enc', 'C:\\Python34\\tcl\\tcl8.6\\encoding\\iso8859-9.enc', 'DATA'), ('tcl\\msgs\\fa.msg', 'C:\\Python34\\tcl\\tcl8.6\\msgs\\fa.msg', 'DATA'), ('tk\\xmfbox.tcl', 'C:\\Python34\\tcl\\tk8.6\\xmfbox.tcl', 'DATA'), ('tcl\\tzdata\\europe\\nicosia', 'C:\\Python34\\tcl\\tcl8.6\\tzdata\\Europe\\Nicosia', 'DATA'), ('tcl\\tzdata\\asia\\yakutsk', 'C:\\Python34\\tcl\\tcl8.6\\tzdata\\Asia\\Yakutsk', 'DATA'), ('tcl\\msgs\\ar_in.msg', 'C:\\Python34\\tcl\\tcl8.6\\msgs\\ar_in.msg', 'DATA'), ('tcl\\tzdata\\australia\\victoria', 'C:\\Python34\\tcl\\tcl8.6\\tzdata\\Australia\\Victoria', 'DATA'), ('tcl\\tm.tcl', 'C:\\Python34\\tcl\\tcl8.6\\tm.tcl', 'DATA'), ('tcl\\tzdata\\etc\\gmt+11', 'C:\\Python34\\tcl\\tcl8.6\\tzdata\\Etc\\GMT+11', 'DATA'), ('tcl\\tzdata\\america\\edmonton', 'C:\\Python34\\tcl\\tcl8.6\\tzdata\\America\\Edmonton', 'DATA'), ('tcl\\tzdata\\asia\\rangoon', 'C:\\Python34\\tcl\\tcl8.6\\tzdata\\Asia\\Rangoon', 'DATA'), ('tcl\\tzdata\\est5edt', 'C:\\Python34\\tcl\\tcl8.6\\tzdata\\EST5EDT', 'DATA'), ('tk\\msgbox.tcl', 'C:\\Python34\\tcl\\tk8.6\\msgbox.tcl', 'DATA'), ('tcl\\msgs\\en_hk.msg', 'C:\\Python34\\tcl\\tcl8.6\\msgs\\en_hk.msg', 'DATA'), ('tcl\\tzdata\\pacific\\tarawa', 'C:\\Python34\\tcl\\tcl8.6\\tzdata\\Pacific\\Tarawa', 'DATA'), ('tcl\\tzdata\\asia\\dhaka', 'C:\\Python34\\tcl\\tcl8.6\\tzdata\\Asia\\Dhaka', 'DATA'), ('tcl\\tzdata\\america\\grenada', 'C:\\Python34\\tcl\\tcl8.6\\tzdata\\America\\Grenada', 'DATA'), ('tcl\\msgs\\kw_gb.msg', 'C:\\Python34\\tcl\\tcl8.6\\msgs\\kw_gb.msg', 'DATA'), ('tk\\menu.tcl', 'C:\\Python34\\tcl\\tk8.6\\menu.tcl', 'DATA'), ('include\\pyconfig.h', 'C:\\Python34\\Include\\pyconfig.h', 'DATA'), ('tcl\\tzdata\\mst', 'C:\\Python34\\tcl\\tcl8.6\\tzdata\\MST', 'DATA'), ('tcl\\tzdata\\canada\\central', 'C:\\Python34\\tcl\\tcl8.6\\tzdata\\Canada\\Central', 'DATA'), ('tk\\msgs\\hu.msg', 'C:\\Python34\\tcl\\tk8.6\\msgs\\hu.msg', 'DATA'), ('tk\\images\\tai-ku.gif', 'C:\\Python34\\tcl\\tk8.6\\images\\tai-ku.gif', 'DATA'), ('tcl\\tzdata\\america\\barbados', 'C:\\Python34\\tcl\\tcl8.6\\tzdata\\America\\Barbados', 'DATA'), ('tcl\\tzdata\\america\\nome', 'C:\\Python34\\tcl\\tcl8.6\\tzdata\\America\\Nome', 'DATA'), ('tk\\msgs\\pl.msg', 'C:\\Python34\\tcl\\tk8.6\\msgs\\pl.msg', 'DATA'), ('tcl\\tzdata\\us\\east-indiana', 'C:\\Python34\\tcl\\tcl8.6\\tzdata\\US\\East-Indiana', 'DATA'), ('tcl\\tzdata\\europe\\jersey', 'C:\\Python34\\tcl\\tcl8.6\\tzdata\\Europe\\Jersey', 'DATA'), ('tcl\\tzdata\\atlantic\\stanley', 'C:\\Python34\\tcl\\tcl8.6\\tzdata\\Atlantic\\Stanley', 'DATA'), ('tcl\\encoding\\cp1254.enc', 'C:\\Python34\\tcl\\tcl8.6\\encoding\\cp1254.enc', 'DATA'), ('tcl\\tzdata\\africa\\blantyre', 'C:\\Python34\\tcl\\tcl8.6\\tzdata\\Africa\\Blantyre', 'DATA'), ('tcl\\msgs\\mr_in.msg', 'C:\\Python34\\tcl\\tcl8.6\\msgs\\mr_in.msg', 'DATA'), ('tcl\\tzdata\\pacific\\niue', 'C:\\Python34\\tcl\\tcl8.6\\tzdata\\Pacific\\Niue', 'DATA'), ('tcl\\tzdata\\pacific\\port_moresby', 'C:\\Python34\\tcl\\tcl8.6\\tzdata\\Pacific\\Port_Moresby', 'DATA'), ('tcl\\tzdata\\us\\pacific-new', 'C:\\Python34\\tcl\\tcl8.6\\tzdata\\US\\Pacific-New', 'DATA'), ('tcl\\tzdata\\america\\thunder_bay', 'C:\\Python34\\tcl\\tcl8.6\\tzdata\\America\\Thunder_Bay', 'DATA'), ('tcl\\msgs\\ar_sy.msg', 'C:\\Python34\\tcl\\tcl8.6\\msgs\\ar_sy.msg', 'DATA'), ('tcl\\package.tcl', 'C:\\Python34\\tcl\\tcl8.6\\package.tcl', 'DATA'), ('tk\\ttk\\aquatheme.tcl', 'C:\\Python34\\tcl\\tk8.6\\ttk\\aquaTheme.tcl', 'DATA'), ('tcl\\tzdata\\us\\samoa', 'C:\\Python34\\tcl\\tcl8.6\\tzdata\\US\\Samoa', 'DATA'), ('tcl\\tzdata\\gmt-0', 'C:\\Python34\\tcl\\tcl8.6\\tzdata\\GMT-0', 'DATA'), ('tcl\\tzdata\\america\\indiana\\marengo', 'C:\\Python34\\tcl\\tcl8.6\\tzdata\\America\\Indiana\\Marengo', 'DATA'), ('tcl\\tzdata\\europe\\riga', 'C:\\Python34\\tcl\\tcl8.6\\tzdata\\Europe\\Riga', 'DATA'), ('tcl\\msgs\\gv_gb.msg', 'C:\\Python34\\tcl\\tcl8.6\\msgs\\gv_gb.msg', 'DATA'), ('tcl\\tzdata\\etc\\gmt-12', 'C:\\Python34\\tcl\\tcl8.6\\tzdata\\Etc\\GMT-12', 'DATA'), ('tcl\\tzdata\\europe\\mariehamn', 'C:\\Python34\\tcl\\tcl8.6\\tzdata\\Europe\\Mariehamn', 'DATA'), ('tcl\\tzdata\\australia\\broken_hill', 'C:\\Python34\\tcl\\tcl8.6\\tzdata\\Australia\\Broken_Hill', 'DATA'), ('tcl\\encoding\\gb2312.enc', 'C:\\Python34\\tcl\\tcl8.6\\encoding\\gb2312.enc', 'DATA'), ('tcl\\encoding\\cp1257.enc', 'C:\\Python34\\tcl\\tcl8.6\\encoding\\cp1257.enc', 'DATA'), ('tcl\\tzdata\\europe\\malta', 'C:\\Python34\\tcl\\tcl8.6\\tzdata\\Europe\\Malta', 'DATA'), ('tcl\\tzdata\\arctic\\longyearbyen', 'C:\\Python34\\tcl\\tcl8.6\\tzdata\\Arctic\\Longyearbyen', 'DATA'), ('tcl\\msgs\\en_ie.msg', 'C:\\Python34\\tcl\\tcl8.6\\msgs\\en_ie.msg', 'DATA'), ('tk\\images\\logolarge.gif', 'C:\\Python34\\tcl\\tk8.6\\images\\logoLarge.gif', 'DATA'), ('tcl\\tzdata\\america\\belem', 'C:\\Python34\\tcl\\tcl8.6\\tzdata\\America\\Belem', 'DATA'), ('tcl\\tzdata\\asia\\shanghai', 'C:\\Python34\\tcl\\tcl8.6\\tzdata\\Asia\\Shanghai', 'DATA'), ('tk\\ttk\\combobox.tcl', 'C:\\Python34\\tcl\\tk8.6\\ttk\\combobox.tcl', 'DATA'), ('tcl\\tzdata\\atlantic\\bermuda', 'C:\\Python34\\tcl\\tcl8.6\\tzdata\\Atlantic\\Bermuda', 'DATA'), ('tcl\\encoding\\tis-620.enc', 'C:\\Python34\\tcl\\tcl8.6\\encoding\\tis-620.enc', 'DATA'), ('tcl\\msgs\\be.msg', 'C:\\Python34\\tcl\\tcl8.6\\msgs\\be.msg', 'DATA'), ('tcl\\tzdata\\antarctica\\rothera', 'C:\\Python34\\tcl\\tcl8.6\\tzdata\\Antarctica\\Rothera', 'DATA'), ('tcl\\tzdata\\america\\dawson', 'C:\\Python34\\tcl\\tcl8.6\\tzdata\\America\\Dawson', 'DATA'), ('tcl\\tzdata\\gmt+0', 'C:\\Python34\\tcl\\tcl8.6\\tzdata\\GMT+0', 'DATA'), ('tcl\\msgs\\es_bo.msg', 'C:\\Python34\\tcl\\tcl8.6\\msgs\\es_bo.msg', 'DATA'), ('tcl\\tzdata\\asia\\katmandu', 'C:\\Python34\\tcl\\tcl8.6\\tzdata\\Asia\\Katmandu', 'DATA'), ('tcl\\tzdata\\europe\\san_marino', 'C:\\Python34\\tcl\\tcl8.6\\tzdata\\Europe\\San_Marino', 'DATA'), ('tcl\\tzdata\\africa\\brazzaville', 'C:\\Python34\\tcl\\tcl8.6\\tzdata\\Africa\\Brazzaville', 'DATA'), ('tcl\\tzdata\\europe\\podgorica', 'C:\\Python34\\tcl\\tcl8.6\\tzdata\\Europe\\Podgorica', 'DATA'), ('tcl\\tzdata\\brazil\\east', 'C:\\Python34\\tcl\\tcl8.6\\tzdata\\Brazil\\East', 'DATA'), ('tcl\\tzdata\\america\\goose_bay', 'C:\\Python34\\tcl\\tcl8.6\\tzdata\\America\\Goose_Bay', 'DATA'), ('tcl\\tzdata\\asia\\baku', 'C:\\Python34\\tcl\\tcl8.6\\tzdata\\Asia\\Baku', 'DATA'), ('tcl\\tzdata\\asia\\muscat', 'C:\\Python34\\tcl\\tcl8.6\\tzdata\\Asia\\Muscat', 'DATA'), ('tcl\\msgs\\ru_ua.msg', 'C:\\Python34\\tcl\\tcl8.6\\msgs\\ru_ua.msg', 'DATA'), ('tcl\\tzdata\\pacific\\easter', 'C:\\Python34\\tcl\\tcl8.6\\tzdata\\Pacific\\Easter', 'DATA'), ('tcl\\tzdata\\europe\\uzhgorod', 'C:\\Python34\\tcl\\tcl8.6\\tzdata\\Europe\\Uzhgorod', 'DATA'), ('tcl\\msgs\\gl_es.msg', 'C:\\Python34\\tcl\\tcl8.6\\msgs\\gl_es.msg', 'DATA'), ('tcl\\tzdata\\america\\rio_branco', 'C:\\Python34\\tcl\\tcl8.6\\tzdata\\America\\Rio_Branco', 'DATA'), ('tcl\\tzdata\\africa\\ouagadougou', 'C:\\Python34\\tcl\\tcl8.6\\tzdata\\Africa\\Ouagadougou', 'DATA'), ('tcl\\msgs\\kw.msg', 'C:\\Python34\\tcl\\tcl8.6\\msgs\\kw.msg', 'DATA'), ('tcl\\tzdata\\antarctica\\davis', 'C:\\Python34\\tcl\\tcl8.6\\tzdata\\Antarctica\\Davis', 'DATA'), ('tcl\\tzdata\\america\\indiana\\petersburg', 'C:\\Python34\\tcl\\tcl8.6\\tzdata\\America\\Indiana\\Petersburg', 'DATA'), ('tcl\\tzdata\\africa\\nairobi', 'C:\\Python34\\tcl\\tcl8.6\\tzdata\\Africa\\Nairobi', 'DATA'), ('tcl\\encoding\\macthai.enc', 'C:\\Python34\\tcl\\tcl8.6\\encoding\\macThai.enc', 'DATA'), ('tcl\\tzdata\\europe\\madrid', 'C:\\Python34\\tcl\\tcl8.6\\tzdata\\Europe\\Madrid', 'DATA'), ('tcl\\tzdata\\america\\cayenne', 'C:\\Python34\\tcl\\tcl8.6\\tzdata\\America\\Cayenne', 'DATA'), ('tcl\\tzdata\\america\\nipigon', 'C:\\Python34\\tcl\\tcl8.6\\tzdata\\America\\Nipigon', 'DATA'), ('tcl\\tzdata\\america\\swift_current', 'C:\\Python34\\tcl\\tcl8.6\\tzdata\\America\\Swift_Current', 'DATA'), ('tcl\\tzdata\\indian\\mauritius', 'C:\\Python34\\tcl\\tcl8.6\\tzdata\\Indian\\Mauritius', 'DATA'), ('tcl\\tzdata\\australia\\darwin', 'C:\\Python34\\tcl\\tcl8.6\\tzdata\\Australia\\Darwin', 'DATA'), ('tcl\\encoding\\gb12345.enc', 'C:\\Python34\\tcl\\tcl8.6\\encoding\\gb12345.enc', 'DATA'), ('tcl\\tzdata\\etc\\gmt-7', 'C:\\Python34\\tcl\\tcl8.6\\tzdata\\Etc\\GMT-7', 'DATA'), ('tk\\msgs\\it.msg', 'C:\\Python34\\tcl\\tk8.6\\msgs\\it.msg', 'DATA'), ('tcl\\tzdata\\w-su', 'C:\\Python34\\tcl\\tcl8.6\\tzdata\\W-SU', 'DATA'), ('tcl\\tzdata\\america\\curacao', 'C:\\Python34\\tcl\\tcl8.6\\tzdata\\America\\Curacao', 'DATA'), ('tcl\\tzdata\\gmt0', 'C:\\Python34\\tcl\\tcl8.6\\tzdata\\GMT0', 'DATA'), ('tcl\\tzdata\\africa\\johannesburg', 'C:\\Python34\\tcl\\tcl8.6\\tzdata\\Africa\\Johannesburg', 'DATA'), ('tcl\\msgs\\en_ca.msg', 'C:\\Python34\\tcl\\tcl8.6\\msgs\\en_ca.msg', 'DATA'), ('tcl\\tzdata\\greenwich', 'C:\\Python34\\tcl\\tcl8.6\\tzdata\\Greenwich', 'DATA'), ('tcl\\tzdata\\egypt', 'C:\\Python34\\tcl\\tcl8.6\\tzdata\\Egypt', 'DATA'), ('tcl\\tzdata\\america\\montserrat', 'C:\\Python34\\tcl\\tcl8.6\\tzdata\\America\\Montserrat', 'DATA'), ('tcl\\encoding\\cp775.enc', 'C:\\Python34\\tcl\\tcl8.6\\encoding\\cp775.enc', 'DATA'), ('tcl\\tzdata\\roc', 'C:\\Python34\\tcl\\tcl8.6\\tzdata\\ROC', 'DATA'), ('tcl\\tzdata\\america\\rosario', 'C:\\Python34\\tcl\\tcl8.6\\tzdata\\America\\Rosario', 'DATA'), ('tcl\\tzdata\\asia\\almaty', 'C:\\Python34\\tcl\\tcl8.6\\tzdata\\Asia\\Almaty', 'DATA'), ('tcl\\tzdata\\pst8pdt', 'C:\\Python34\\tcl\\tcl8.6\\tzdata\\PST8PDT', 'DATA'), ('tcl\\tzdata\\america\\danmarkshavn', 'C:\\Python34\\tcl\\tcl8.6\\tzdata\\America\\Danmarkshavn', 'DATA'), ('tcl\\tzdata\\europe\\vaduz', 'C:\\Python34\\tcl\\tcl8.6\\tzdata\\Europe\\Vaduz', 'DATA'), ('tcl\\encoding\\big5.enc', 'C:\\Python34\\tcl\\tcl8.6\\encoding\\big5.enc', 'DATA'), ('tcl\\encoding\\gb2312-raw.enc', 'C:\\Python34\\tcl\\tcl8.6\\encoding\\gb2312-raw.enc', 'DATA'), ('tcl\\encoding\\cp860.enc', 'C:\\Python34\\tcl\\tcl8.6\\encoding\\cp860.enc', 'DATA'), ('tcl\\msgs\\sh.msg', 'C:\\Python34\\tcl\\tcl8.6\\msgs\\sh.msg', 'DATA'), ('tcl\\tzdata\\pacific\\apia', 'C:\\Python34\\tcl\\tcl8.6\\tzdata\\Pacific\\Apia', 'DATA'), ('tcl\\tzdata\\america\\scoresbysund', 'C:\\Python34\\tcl\\tcl8.6\\tzdata\\America\\Scoresbysund', 'DATA'), ('tcl\\tzdata\\us\\central', 'C:\\Python34\\tcl\\tcl8.6\\tzdata\\US\\Central', 'DATA'), ('tcl\\tzdata\\asia\\harbin', 'C:\\Python34\\tcl\\tcl8.6\\tzdata\\Asia\\Harbin', 'DATA'), ('tk\\images\\pwrdlogo200.gif', 'C:\\Python34\\tcl\\tk8.6\\images\\pwrdLogo200.gif', 'DATA'), ('tk\\mkpsenc.tcl', 'C:\\Python34\\tcl\\tk8.6\\mkpsenc.tcl', 'DATA'), ('tcl\\tzdata\\america\\fortaleza', 'C:\\Python34\\tcl\\tcl8.6\\tzdata\\America\\Fortaleza', 'DATA'), ('tcl\\tzdata\\pacific\\ponape', 'C:\\Python34\\tcl\\tcl8.6\\tzdata\\Pacific\\Ponape', 'DATA'), ('tcl\\msgs\\fi.msg', 'C:\\Python34\\tcl\\tcl8.6\\msgs\\fi.msg', 'DATA'), ('tcl\\tzdata\\australia\\hobart', 'C:\\Python34\\tcl\\tcl8.6\\tzdata\\Australia\\Hobart', 'DATA'), ('tcl\\tzdata\\atlantic\\south_georgia', 'C:\\Python34\\tcl\\tcl8.6\\tzdata\\Atlantic\\South_Georgia', 'DATA'), ('tcl\\tzdata\\america\\argentina\\la_rioja', 'C:\\Python34\\tcl\\tcl8.6\\tzdata\\America\\Argentina\\La_Rioja', 'DATA'), ('tcl\\tzdata\\america\\tegucigalpa', 'C:\\Python34\\tcl\\tcl8.6\\tzdata\\America\\Tegucigalpa', 'DATA'), ('tcl\\opt0.4\\pkgindex.tcl', 'C:\\Python34\\tcl\\tcl8.6\\opt0.4\\pkgIndex.tcl', 'DATA'), ('tk\\msgs\\ru.msg', 'C:\\Python34\\tcl\\tk8.6\\msgs\\ru.msg', 'DATA'), ('tcl\\encoding\\ebcdic.enc', 'C:\\Python34\\tcl\\tcl8.6\\encoding\\ebcdic.enc', 'DATA'), ('tcl\\tzdata\\australia\\sydney', 'C:\\Python34\\tcl\\tcl8.6\\tzdata\\Australia\\Sydney', 'DATA'), ('tcl\\encoding\\iso8859-4.enc', 'C:\\Python34\\tcl\\tcl8.6\\encoding\\iso8859-4.enc', 'DATA'), ('tk\\ttk\\xptheme.tcl', 'C:\\Python34\\tcl\\tk8.6\\ttk\\xpTheme.tcl', 'DATA'), ('tcl\\tzdata\\africa\\lubumbashi', 'C:\\Python34\\tcl\\tcl8.6\\tzdata\\Africa\\Lubumbashi', 'DATA'), ('twistedserver.exe.manifest', 'C:\\Users\\alice\\Documents\\Code\\Python\\firestarter\\build\\twistedserver\\twistedserver.exe.manifest', 'BINARY'), ('pyi-windows-manifest-filename twistedserver.exe.manifest', '', 'OPTION')],
 [],
 None,
 False,
 1456921100,
 [('run.exe', 'C:\\Python34\\lib\\site-packages\\PyInstaller\\bootloader\\Windows-64bit\\run.exe', 'EXECUTABLE')])
